<?xml version="1.0" encoding="UTF-8" standalone="no"?>
<!-- Created with Inkscape (http://www.inkscape.org/) -->

<svg
   xmlns:dc="http://purl.org/dc/elements/1.1/"
   xmlns:cc="http://creativecommons.org/ns#"
   xmlns:rdf="http://www.w3.org/1999/02/22-rdf-syntax-ns#"
   xmlns:svg="http://www.w3.org/2000/svg"
   xmlns="http://www.w3.org/2000/svg"
   xmlns:sodipodi="http://sodipodi.sourceforge.net/DTD/sodipodi-0.dtd"
   xmlns:inkscape="http://www.inkscape.org/namespaces/inkscape"
   width="256"
   height="256"
   id="svg3481"
   version="1.1"
   inkscape:version="0.48.4 r9939"
   sodipodi:docname="New document 28">
  <defs
     id="defs3483" />
  <sodipodi:namedview
     id="base"
     pagecolor="#ffffff"
     bordercolor="#666666"
     borderopacity="1.0"
     inkscape:pageopacity="0.0"
     inkscape:pageshadow="2"
     inkscape:zoom="0.35"
     inkscape:cx="375"
     inkscape:cy="520"
     inkscape:document-units="px"
     inkscape:current-layer="layer1"
     showgrid="false"
     inkscape:window-width="728"
     inkscape:window-height="383"
     inkscape:window-x="636"
     inkscape:window-y="24"
     inkscape:window-maximized="0" />
  <metadata
     id="metadata3486">
    <rdf:RDF>
      <cc:Work
         rdf:about="">
        <dc:format>image/svg+xml</dc:format>
        <dc:type
           rdf:resource="http://purl.org/dc/dcmitype/StillImage" />
        <dc:title></dc:title>
      </cc:Work>
    </rdf:RDF>
  </metadata>
  <g
     inkscape:label="Layer 1"
     inkscape:groupmode="layer"
     id="layer1"
     transform="translate(128,128)scale(1.5)translate(-128,-128)translate(0,-796.36218)">
    <path
       style="fill:currentColor"
       inkscape:connector-curvature="0"
       d="m 128,948.03341 c 10.52059,0 19.06848,-8.54797 19.06848,-19.06847 v -32.43842 c 0,-2.19173 1.97261,-4.16434 4.16442,-4.16434 2.19173,0 4.16434,1.97261 4.16434,4.16434 v 32.43842 c 0,15.12325 -12.27398,27.39724 -27.39724,27.39724 -15.12326,0 -27.39724,-12.27399 -27.39724,-27.39724 v -32.43842 c 0,-2.19173 1.97261,-4.16434 4.16434,-4.16434 2.19181,0 4.16442,1.97261 4.16442,4.16434 v 32.43842 c 0,10.5205 8.54789,19.06847 19.06848,19.06847 z"
       id="path40" />
  </g>
</svg>
