<?xml version="1.0" encoding="UTF-8" standalone="no"?>
<!-- Created with Inkscape (http://www.inkscape.org/) -->

<svg
   xmlns:dc="http://purl.org/dc/elements/1.1/"
   xmlns:cc="http://creativecommons.org/ns#"
   xmlns:rdf="http://www.w3.org/1999/02/22-rdf-syntax-ns#"
   xmlns:svg="http://www.w3.org/2000/svg"
   xmlns="http://www.w3.org/2000/svg"
   xmlns:sodipodi="http://sodipodi.sourceforge.net/DTD/sodipodi-0.dtd"
   xmlns:inkscape="http://www.inkscape.org/namespaces/inkscape"
   width="256"
   height="256"
   id="svg4042"
   version="1.1"
   inkscape:version="0.48.4 r9939"
   sodipodi:docname="icon-note--1.svg">
  <defs
     id="defs4044" />
  <sodipodi:namedview
     id="base"
     pagecolor="#ffffff"
     bordercolor="#666666"
     borderopacity="1.0"
     inkscape:pageopacity="0.0"
     inkscape:pageshadow="2"
     inkscape:zoom="0.35"
     inkscape:cx="-33.571429"
     inkscape:cy="520"
     inkscape:document-units="px"
     inkscape:current-layer="layer1"
     showgrid="false"
     inkscape:window-width="1024"
     inkscape:window-height="744"
     inkscape:window-x="0"
     inkscape:window-y="24"
     inkscape:window-maximized="1" />
  <metadata
     id="metadata4047">
    <rdf:RDF>
      <cc:Work
         rdf:about="">
        <dc:format>image/svg+xml</dc:format>
        <dc:type
           rdf:resource="http://purl.org/dc/dcmitype/StillImage" />
        <dc:title></dc:title>
      </cc:Work>
    </rdf:RDF>
  </metadata>
  <g
     inkscape:label="Laag 1"
     inkscape:groupmode="layer"
     id="layer1"
     transform="translate(0,-796.36218)">
    <path
       d="M 171.74997,961.86218 H 84.25003 c -3.50002,0 -6.25003,-2.75001 -6.25003,-6.25002 0,-3.50002 2.75001,-6.25003 6.25003,-6.25003 h 24.99999 v -50 H 84.25003 c -3.50002,0 -6.25003,-2.74991 -6.25003,-6.24992 0,-3.50002 2.75001,-6.25003 6.25003,-6.25003 h 87.49994 c 3.50002,0 6.25003,2.75001 6.25003,6.25003 0,3.50001 -2.75001,6.24992 -6.25003,6.24992 h -25 v 50 h 25 c 3.50002,0 6.25003,2.75001 6.25003,6.25003 0,3.50001 -2.75001,6.25002 -6.25003,6.25002 z"
       id="path3852"
       inkscape:connector-curvature="0"
       style="fill:currentColor" />
  </g>
</svg>
