<?xml version="1.0" encoding="UTF-8" standalone="no"?>
<!-- Created with Inkscape (http://www.inkscape.org/) -->

<svg
   xmlns:dc="http://purl.org/dc/elements/1.1/"
   xmlns:cc="http://creativecommons.org/ns#"
   xmlns:rdf="http://www.w3.org/1999/02/22-rdf-syntax-ns#"
   xmlns:svg="http://www.w3.org/2000/svg"
   xmlns="http://www.w3.org/2000/svg"
   xmlns:sodipodi="http://sodipodi.sourceforge.net/DTD/sodipodi-0.dtd"
   xmlns:inkscape="http://www.inkscape.org/namespaces/inkscape"
   width="256"
   height="256"
   id="svg3077"
   version="1.1"
   inkscape:version="0.48.4 r9939"
   sodipodi:docname="New document 1">
  <defs
     id="defs3079" />
  <sodipodi:namedview
     id="base"
     pagecolor="#ffffff"
     bordercolor="#666666"
     borderopacity="1.0"
     inkscape:pageopacity="0.0"
     inkscape:pageshadow="2"
     inkscape:zoom="0.35"
     inkscape:cx="375"
     inkscape:cy="488.98478"
     inkscape:document-units="px"
     inkscape:current-layer="layer1"
     showgrid="false"
     inkscape:window-width="728"
     inkscape:window-height="383"
     inkscape:window-x="636"
     inkscape:window-y="24"
     inkscape:window-maximized="0" />
  <metadata
     id="metadata3082">
    <rdf:RDF>
      <cc:Work
         rdf:about="">
        <dc:format>image/svg+xml</dc:format>
        <dc:type
           rdf:resource="http://purl.org/dc/dcmitype/StillImage" />
        <dc:title></dc:title>
      </cc:Work>
    </rdf:RDF>
  </metadata>
  <g
     inkscape:label="Layer 1"
     inkscape:groupmode="layer"
     id="layer1"
     transform="translate(128,128)scale(1.5)translate(-128,-128)translate(0,-796.36218)">
    <path
       style="fill:currentColor"
       inkscape:connector-curvature="0"
       d="m 130.71955,985.64263 c 0,1.4504 -1.26915,2.71955 -2.71955,2.71955 -1.4504,0 -2.71955,-1.26915 -2.71955,-2.71955 v -16.136 c -17.5864,-1.81306 -26.65156,-21.75636 -27.3768,-42.4249 H 81.94898 c -1.4504,0 -2.71948,-1.26915 -2.71948,-2.71955 0,-1.4504 1.26908,-2.71955 2.71948,-2.71955 h 15.95467 c 0.72502,-20.66854 9.7904,-40.61191 27.3768,-42.4249 v -16.136 c 0,-1.4504 1.26915,-2.71955 2.71955,-2.71955 1.4504,0 2.71955,1.26915 2.71955,2.71955 v 16.136 c 17.5864,1.81299 26.65156,21.75636 27.37673,42.4249 h 15.95466 c 1.45048,0 2.71956,1.26915 2.71956,2.71955 0,1.4504 -1.26908,2.71955 -2.71956,2.71955 h -15.95466 c -0.72502,20.66854 -9.79033,40.61184 -27.37673,42.4249 v 16.136 z m 0,-58.5609 v 36.98579 c 12.69121,-2.17564 13.96036,-20.12462 14.14161,-36.98579 h -14.14161 z m 0,-5.4391 h 14.14161 c -0.18125,-16.86117 -1.4504,-34.81015 -14.14161,-36.98579 v 36.98579 z m -5.4391,5.4391 h -14.14161 c 0.18125,16.86117 1.4504,34.81015 14.14161,36.98579 v -36.98579 z m 0,-5.4391 v -36.98579 c -12.69121,2.17564 -13.96036,20.12462 -14.14161,36.98579 h 14.14161 z"
       id="path34" />
  </g>
</svg>
