<?xml version="1.0" encoding="UTF-8" standalone="no"?>
<!-- Created with Inkscape (http://www.inkscape.org/) -->

<svg
   xmlns:dc="http://purl.org/dc/elements/1.1/"
   xmlns:cc="http://creativecommons.org/ns#"
   xmlns:rdf="http://www.w3.org/1999/02/22-rdf-syntax-ns#"
   xmlns:svg="http://www.w3.org/2000/svg"
   xmlns="http://www.w3.org/2000/svg"
   xmlns:sodipodi="http://sodipodi.sourceforge.net/DTD/sodipodi-0.dtd"
   xmlns:inkscape="http://www.inkscape.org/namespaces/inkscape"
   width="256"
   height="256"
   id="svg3637"
   version="1.1"
   inkscape:version="0.48.4 r9939"
   sodipodi:docname="New document 25">
  <defs
     id="defs3639" />
  <sodipodi:namedview
     id="base"
     pagecolor="#ffffff"
     bordercolor="#666666"
     borderopacity="1.0"
     inkscape:pageopacity="0.0"
     inkscape:pageshadow="2"
     inkscape:zoom="0.5"
     inkscape:cx="375"
     inkscape:cy="520"
     inkscape:document-units="px"
     inkscape:current-layer="layer1"
     showgrid="false"
     inkscape:window-width="689"
     inkscape:window-height="399"
     inkscape:window-x="323"
     inkscape:window-y="24"
     inkscape:window-maximized="0" />
  <metadata
     id="metadata3642">
    <rdf:RDF>
      <cc:Work
         rdf:about="">
        <dc:format>image/svg+xml</dc:format>
        <dc:type
           rdf:resource="http://purl.org/dc/dcmitype/StillImage" />
        <dc:title></dc:title>
      </cc:Work>
    </rdf:RDF>
  </metadata>
  <g
     inkscape:label="Layer 1"
     inkscape:groupmode="layer"
     id="layer1"
     transform="translate(0,-796.36218)">
    <path
       style="fill:currentColor"
       inkscape:connector-curvature="0"
       d="m 87.03125,1048.5542 c -0.25519,1.7867 -1.53155,2.8078 -2.8078,2.8078 -1.53155,0 -3.0631,-1.0208 -3.0631,-2.8078 0,-44.67 59.98539,-42.1174 59.98539,-87.80842 0,-15.31546 -4.59464,-31.1413 -17.86797,-31.1413 -6.63667,0 -13.01814,3.57357 -13.01814,9.44447 0,6.89195 8.93398,10.46553 8.93398,17.35748 0,9.69976 -7.65773,17.61268 -17.35749,17.61268 -9.69975,0 -17.61267,-7.91292 -17.61267,-17.61268 0,-19.39951 18.37845,-32.67294 39.05432,-32.67294 24.50463,0 47.73301,14.29439 47.73301,37.01229 0,39.05432 -38.54384,40.58592 -63.55895,56.15652 2.29731,-0.5104 4.33934,-0.7656 6.63666,-0.7656 8.4235,0 17.86797,2.8078 26.80195,9.1893 5.36042,3.8289 11.74179,5.8709 16.84701,5.8709 5.36031,0 9.95495,-2.2973 11.2313,-7.4024 0.51038,-1.5316 1.53155,-2.2974 2.8078,-2.2974 1.53155,0 3.0631,1.2763 3.0631,3.0631 0,17.1022 -22.97319,26.802 -35.22546,26.802 -9.18928,0 -18.12326,-3.5736 -24.50463,-11.2313 -3.31839,-4.0842 -7.91303,-5.6157 -12.25237,-5.6157 -7.65773,0 -15.06017,5.1052 -15.82594,14.0392 z"
       id="path42" />
    <path
       style="fill:currentColor"
       inkscape:connector-curvature="0"
       d="m 127.82137,859.64489 c -13.01814,0 -13.52862,11.2313 -13.52862,26.03618 v 3.57367 3.82887 c 0,14.80487 0.51037,26.03618 13.52862,26.03618 14.54968,0 15.57065,-13.01814 15.57065,-29.86505 0,-16.847 -1.02076,-29.60985 -15.57065,-29.60985 z m -13.52862,-2.55251 c 4.33934,-1.78684 8.67869,-3.31839 13.52862,-3.31839 25.78099,0 43.39366,11.23131 43.39366,35.48075 0,24.24934 -17.61267,35.73594 -43.39366,35.73594 -28.58879,0 -43.39367,-31.65188 -43.39367,-63.81425 0,-32.67284 18.37845,-63.81425 48.49879,-63.81425 18.12326,0 35.22545,9.95505 35.22545,26.29148 0,9.18927 -7.40244,16.847 -16.59171,16.847 -9.18918,0 -16.84691,-7.65773 -16.84691,-16.847 0,-6.12608 9.95495,-6.38138 9.95495,-12.50756 0,-5.10512 -5.87089,-7.91292 -11.74178,-7.91292 -16.84691,0 -19.14423,16.59161 -19.14423,35.48065 0,6.12618 0.51038,12.25236 0.51038,18.37855 z"
       id="path44" />
  </g>
</svg>
