<?xml version="1.0" encoding="UTF-8" standalone="no"?>
<!-- Created with Inkscape (http://www.inkscape.org/) -->

<svg
   xmlns:dc="http://purl.org/dc/elements/1.1/"
   xmlns:cc="http://creativecommons.org/ns#"
   xmlns:rdf="http://www.w3.org/1999/02/22-rdf-syntax-ns#"
   xmlns:svg="http://www.w3.org/2000/svg"
   xmlns="http://www.w3.org/2000/svg"
   xmlns:sodipodi="http://sodipodi.sourceforge.net/DTD/sodipodi-0.dtd"
   xmlns:inkscape="http://www.inkscape.org/namespaces/inkscape"
   width="256"
   height="256"
   id="svg3178"
   version="1.1"
   inkscape:version="0.48.4 r9939"
   sodipodi:docname="New document 8">
  <defs
     id="defs3180" />
  <sodipodi:namedview
     id="base"
     pagecolor="#ffffff"
     bordercolor="#666666"
     borderopacity="1.0"
     inkscape:pageopacity="0.0"
     inkscape:pageshadow="2"
     inkscape:zoom="0.35"
     inkscape:cx="375"
     inkscape:cy="520"
     inkscape:document-units="px"
     inkscape:current-layer="layer1"
     showgrid="false"
     inkscape:window-width="728"
     inkscape:window-height="383"
     inkscape:window-x="636"
     inkscape:window-y="24"
     inkscape:window-maximized="0" />
  <metadata
     id="metadata3183">
    <rdf:RDF>
      <cc:Work
         rdf:about="">
        <dc:format>image/svg+xml</dc:format>
        <dc:type
           rdf:resource="http://purl.org/dc/dcmitype/StillImage" />
        <dc:title></dc:title>
      </cc:Work>
    </rdf:RDF>
  </metadata>
  <g
     inkscape:label="Layer 1"
     inkscape:groupmode="layer"
     id="layer1"
     transform="translate(128,128)scale(1.5)translate(-128,-128)translate(0,-796.36218)">
    <path
       style="fill:currentColor"
       inkscape:connector-curvature="0"
       d="m 203.34869,893.99938 c 0.89278,-1.33953 2.23259,-2.0093 3.79533,-2.0093 2.45588,0 4.46519,2.0093 4.46519,4.4651 0,0.89278 -0.44639,1.78611 -0.89279,2.45588 -6.92098,10.49303 -13.84188,20.76277 -20.76286,31.2558 -0.89279,1.33954 -2.00931,2.00931 -3.57204,2.00931 -1.33954,0 -2.67908,-0.44639 -3.57214,-1.56283 l -21.87902,-26.56741 -17.41393,26.12093 c -0.89279,1.33954 -2.23259,2.00931 -3.79542,2.00931 -1.33954,0 -2.45578,-0.44639 -3.34876,-1.56283 l -22.1024,-26.56741 -17.413915,26.12093 c -0.89279,1.33954 -2.00931,2.00931 -3.57214,2.00931 -1.33954,0 -2.67908,-0.44639 -3.57204,-1.56283 l -21.87912,-26.56741 c -2.23251,3.57205 -4.68839,6.9209 -6.92089,10.49303 -5.13487,7.59066 -7.59076,16.52087 -7.59076,25.45116 0,8.9302 2.45589,17.8605 7.59076,25.45116 2.00931,3.12556 -0.4464,6.9209 -3.79534,6.9209 -1.56282,0 -2.67907,-0.6696 -3.57213,-2.00931 -6.02793,-9.15349 -9.15349,-19.86972 -9.15349,-30.36275 0,-10.49303 3.12556,-21.20934 9.15349,-30.36283 6.92098,-10.49303 13.84188,-20.76278 20.76277,-31.25581 0.89279,-1.33954 2.2326,-2.0093 3.79542,-2.0093 1.33954,0 2.4558,0.44639 3.34876,1.56282 l 21.879125,26.56741 17.41392,-26.12093 c 0.89279,-1.33954 2.2326,-2.0093 3.79542,-2.0093 1.33954,0 2.45579,0.44639 3.34885,1.56282 l 22.1023,26.56741 17.41393,-26.12093 c 0.89279,-1.33954 2.00932,-2.0093 3.57214,-2.0093 1.33954,0 2.67908,0.44639 3.57204,1.56282 l 21.87912,26.56741 c 2.23251,-3.57213 4.68839,-6.92089 6.9209,-10.49303 z"
       id="path66" />
  </g>
</svg>
