<?xml version="1.0" encoding="UTF-8" standalone="no"?>
<!-- Created with Inkscape (http://www.inkscape.org/) -->

<svg
   xmlns:dc="http://purl.org/dc/elements/1.1/"
   xmlns:cc="http://creativecommons.org/ns#"
   xmlns:rdf="http://www.w3.org/1999/02/22-rdf-syntax-ns#"
   xmlns:svg="http://www.w3.org/2000/svg"
   xmlns="http://www.w3.org/2000/svg"
   xmlns:sodipodi="http://sodipodi.sourceforge.net/DTD/sodipodi-0.dtd"
   xmlns:inkscape="http://www.inkscape.org/namespaces/inkscape"
   width="256"
   height="256"
   id="svg3016"
   version="1.1"
   inkscape:version="0.48.4 r9939"
   sodipodi:docname="New document 2">
  <defs
     id="defs3018" />
  <sodipodi:namedview
     id="base"
     pagecolor="#ffffff"
     bordercolor="#666666"
     borderopacity="1.0"
     inkscape:pageopacity="0.0"
     inkscape:pageshadow="2"
     inkscape:zoom="0.35"
     inkscape:cx="216.13581"
     inkscape:cy="122.80612"
     inkscape:document-units="px"
     inkscape:current-layer="layer1"
     showgrid="false"
     inkscape:window-width="735"
     inkscape:window-height="383"
     inkscape:window-x="543"
     inkscape:window-y="24"
     inkscape:window-maximized="0" />
  <metadata
     id="metadata3021">
    <rdf:RDF>
      <cc:Work
         rdf:about="">
        <dc:format>image/svg+xml</dc:format>
        <dc:type
           rdf:resource="http://purl.org/dc/dcmitype/StillImage" />
        <dc:title></dc:title>
      </cc:Work>
    </rdf:RDF>
  </metadata>
  <g
     inkscape:label="Layer 1"
     inkscape:groupmode="layer"
     id="layer1"
     transform="translate(128,128)scale(1.5)translate(-128,-128)translate(0,-796.36218)">
    <path
       style="fill:currentColor"
       inkscape:connector-curvature="0"
       d="m 128,896.97017 c -6.91204,0 -7.80804,9.08798 -7.80804,18.04804 v 9.34401 9.34392 c 0,8.96006 0.89609,18.04804 7.80804,18.04804 6.91204,0 7.93596,-9.08798 7.93596,-18.04804 0,-3.32797 -0.12801,-6.52791 -0.12801,-9.34392 0,-2.816 0.12801,-6.01604 0.12801,-9.34401 0,-8.96006 -1.02392,-18.04804 -7.93596,-18.04804 z m 0,-4.60799 c 15.10403,0 24.32002,15.61598 24.32002,32.00004 0,16.38397 -9.21599,31.99996 -24.32002,31.99996 -15.10403,0 -24.32002,-15.61599 -24.32002,-31.99996 0,-16.38406 9.21599,-32.00004 24.32002,-32.00004 z"
       id="path10" />
  </g>
</svg>
