<?xml version="1.0" encoding="UTF-8" standalone="no"?>
<!-- Created with Inkscape (http://www.inkscape.org/) -->

<svg
   xmlns:dc="http://purl.org/dc/elements/1.1/"
   xmlns:cc="http://creativecommons.org/ns#"
   xmlns:rdf="http://www.w3.org/1999/02/22-rdf-syntax-ns#"
   xmlns:svg="http://www.w3.org/2000/svg"
   xmlns="http://www.w3.org/2000/svg"
   xmlns:sodipodi="http://sodipodi.sourceforge.net/DTD/sodipodi-0.dtd"
   xmlns:inkscape="http://www.inkscape.org/namespaces/inkscape"
   width="256"
   height="256"
   id="svg4801"
   version="1.1"
   inkscape:version="0.48.4 r9939"
   sodipodi:docname="New document 113">
  <defs
     id="defs4803" />
  <sodipodi:namedview
     id="base"
     pagecolor="#ffffff"
     bordercolor="#666666"
     borderopacity="1.0"
     inkscape:pageopacity="0.0"
     inkscape:pageshadow="2"
     inkscape:zoom="0.35"
     inkscape:cx="375"
     inkscape:cy="520"
     inkscape:document-units="px"
     inkscape:current-layer="layer1"
     showgrid="false"
     inkscape:window-width="728"
     inkscape:window-height="383"
     inkscape:window-x="636"
     inkscape:window-y="24"
     inkscape:window-maximized="0" />
  <metadata
     id="metadata4806">
    <rdf:RDF>
      <cc:Work
         rdf:about="">
        <dc:format>image/svg+xml</dc:format>
        <dc:type
           rdf:resource="http://purl.org/dc/dcmitype/StillImage" />
        <dc:title></dc:title>
      </cc:Work>
    </rdf:RDF>
  </metadata>
  <g
     inkscape:label="Layer 1"
     inkscape:groupmode="layer"
     id="layer1"
     transform="translate(128,128)scale(1.5)translate(-128,-128)translate(0,-796.36218)">
    <path
       d="m 64.23257,933.07359 c 0,5.11066 3.94916,6.96917 9.05992,6.96917 9.05992,0 16.72591,-3.25225 23.92742,-6.50459 l 1.16149,-5.57534 C 93.03841,924.01367 86.76615,921.226 79.56474,921.226 c -7.43375,0 -15.33217,3.71692 -15.33217,11.84759 z m 62.95467,28.5735 c 0,14.17058 -10.91833,26.71509 -22.76592,26.71509 -9.05992,0 -13.00908,-10.22142 -13.00908,-21.13976 0,-3.25224 0.23224,-6.50458 0.92897,-9.5245 l 3.48458,-17.65516 c -7.2015,3.01991 -14.40291,5.80758 -23.46283,5.80758 -8.13067,0 -13.93825,-4.1815 -13.93825,-11.8475 0,-11.84758 11.38292,-18.58442 22.30125,-18.58442 7.20141,0 13.47366,2.323 19.049,5.80758 l 10.686,-53.89466 c 1.39383,0.69673 3.02,1.1615 4.64608,1.1615 5.11075,0 11.15067,-3.71692 15.79675,-8.13066 l -12.31217,61.79308 14.8675,-8.36301 c 6.04001,-3.25224 11.84759,-4.64608 17.19059,-4.64608 6.73683,0 12.31216,2.32309 14.86749,6.50459 4.18151,-4.64617 10.22142,-6.96917 16.02909,-6.96917 8.36301,0 16.029,5.11066 16.029,16.029 0,10.45375 -6.27225,20.9075 -15.09984,20.9075 -5.80758,0 -8.82758,-5.11075 -8.82758,-11.15067 0,-9.5245 6.73693,-14.86749 13.93834,-14.86749 h 0.69673 c -1.85842,-3.25225 -5.343,-4.64609 -8.82758,-4.64609 -5.57534,0 -11.61525,3.71683 -12.77675,9.98908 l -12.54451,62.72234 c -2.55533,-1.62617 -5.57533,-2.55533 -8.82758,-2.55533 -3.25225,0 -6.73683,0.92897 -9.98908,2.55533 l 12.54441,-62.72234 v -1.62617 c 0,-3.71682 -2.78767,-6.03991 -6.73683,-6.03991 -1.62608,0 -3.71683,0.69673 -5.57534,1.62617 l -18.35208,10.22141 -1.62608,7.20142 c 6.27226,7.2015 11.61525,15.56441 11.61525,25.32125 z m -13.93834,15.09983 c 5.343,0 8.13067,-7.89842 8.13067,-14.17058 0,-6.96917 -3.25225,-12.77684 -7.43375,-18.11984 l -1.1615,6.27226 c -0.92897,4.1815 -3.02,13.00908 -3.02,19.28133 0,3.94917 0.92897,6.73683 3.48458,6.73683 z"
       id="path54"
       inkscape:connector-curvature="0"
       style="fill:currentColor" />
  </g>
</svg>
