<?xml version="1.0" encoding="UTF-8" standalone="no"?>
<!-- Created with Inkscape (http://www.inkscape.org/) -->

<svg
   xmlns:dc="http://purl.org/dc/elements/1.1/"
   xmlns:cc="http://creativecommons.org/ns#"
   xmlns:rdf="http://www.w3.org/1999/02/22-rdf-syntax-ns#"
   xmlns:svg="http://www.w3.org/2000/svg"
   xmlns="http://www.w3.org/2000/svg"
   xmlns:sodipodi="http://sodipodi.sourceforge.net/DTD/sodipodi-0.dtd"
   xmlns:inkscape="http://www.inkscape.org/namespaces/inkscape"
   width="256"
   height="256"
   id="svg6237"
   version="1.1"
   inkscape:version="0.48.4 r9939"
   sodipodi:docname="Nieuw document 81">
  <defs
     id="defs6239" />
  <sodipodi:namedview
     id="base"
     pagecolor="#ffffff"
     bordercolor="#666666"
     borderopacity="1.0"
     inkscape:pageopacity="0.0"
     inkscape:pageshadow="2"
     inkscape:zoom="0.35"
     inkscape:cx="-33.571429"
     inkscape:cy="520"
     inkscape:document-units="px"
     inkscape:current-layer="layer1"
     showgrid="false"
     inkscape:window-width="1024"
     inkscape:window-height="744"
     inkscape:window-x="0"
     inkscape:window-y="24"
     inkscape:window-maximized="1" />
  <metadata
     id="metadata6242">
    <rdf:RDF>
      <cc:Work
         rdf:about="">
        <dc:format>image/svg+xml</dc:format>
        <dc:type
           rdf:resource="http://purl.org/dc/dcmitype/StillImage" />
        <dc:title></dc:title>
      </cc:Work>
    </rdf:RDF>
  </metadata>
  <g
     inkscape:label="Laag 1"
     inkscape:groupmode="layer"
     id="layer1"
     transform="translate(0,-796.36218)">
    <path
       d="m 110.96212,1049.2717 15.26091,-68.56956 c -7.52587,2.71768 -15.46991,5.01728 -23.62304,5.01728 -9.616465,0 -18.187675,-6.89879 -18.187675,-16.51525 0,-8.36213 6.89879,-15.05183 15.26091,-15.05183 5.226355,0 10.034635,3.13576 11.707065,8.15304 2.09051,5.85353 1.04525,12.33415 7.10778,12.33415 3.55394,0 11.70699,-11.4979 12.54324,-15.26092 l 6.8987,-30.73082 c -7.31687,2.71768 -14.84275,4.80819 -22.78679,4.80819 -9.61647,0 -18.187675,-6.8987 -18.187675,-16.51517 0,-8.36213 6.689695,-15.05191 15.051825,-15.05191 5.22636,0 10.24364,3.13585 11.91606,8.15312 2.0906,5.85353 1.04526,12.33415 7.10788,12.33415 3.34485,0 10.66172,-11.28889 11.49789,-14.84283 l 7.10787,-31.14891 c -7.10787,2.50859 -14.63374,4.80819 -22.1597,4.80819 -9.61647,0 -18.18768,-6.89879 -18.18768,-16.51525 0,-8.36213 6.89879,-15.05183 15.26091,-15.05183 5.22637,0 10.03456,3.13585 11.70698,8.15312 2.0906,5.85345 1.04534,12.33415 7.10787,12.33415 3.13577,0 10.03457,-10.87081 10.87081,-14.21566 l 7.1078,-31.56708 c -6.89879,2.50868 -14.00658,4.59919 -21.32345,4.59919 -9.61646,0 -18.18768,-6.89878 -18.18768,-16.51525 0,-8.36213 6.68971,-15.05183 15.05183,-15.05183 5.22636,0 10.24364,3.13577 11.91606,8.15304 2.09052,5.85353 1.04526,12.33423 7.10788,12.33423 2.92668,0 8.57112,-10.24363 9.82546,-13.1704 1.04526,-2.50868 4.80828,-2.50868 5.85353,0 l -49.1276,244.59265 c -1.67242,1.4633 -3.76293,2.0905 -5.85353,2.0905 -2.09051,0 -3.97202,-0.627 -5.64444,-2.0905 z"
       id="path3856"
       inkscape:connector-curvature="0"
       style="fill:currentColor" />
  </g>
</svg>
