<?xml version="1.0" encoding="UTF-8" standalone="no"?>
<!-- Created with Inkscape (http://www.inkscape.org/) -->

<svg
   xmlns:dc="http://purl.org/dc/elements/1.1/"
   xmlns:cc="http://creativecommons.org/ns#"
   xmlns:rdf="http://www.w3.org/1999/02/22-rdf-syntax-ns#"
   xmlns:svg="http://www.w3.org/2000/svg"
   xmlns="http://www.w3.org/2000/svg"
   xmlns:sodipodi="http://sodipodi.sourceforge.net/DTD/sodipodi-0.dtd"
   xmlns:inkscape="http://www.inkscape.org/namespaces/inkscape"
   width="256"
   height="256"
   id="svg5621"
   version="1.1"
   inkscape:version="0.48.4 r9939"
   sodipodi:docname="icon-rest-0.svg">
  <defs
     id="defs5623" />
  <sodipodi:namedview
     id="base"
     pagecolor="#ffffff"
     bordercolor="#666666"
     borderopacity="1.0"
     inkscape:pageopacity="0.0"
     inkscape:pageshadow="2"
     inkscape:zoom="0.35"
     inkscape:cx="-33.571429"
     inkscape:cy="520"
     inkscape:document-units="px"
     inkscape:current-layer="layer1"
     showgrid="false"
     inkscape:window-width="1024"
     inkscape:window-height="744"
     inkscape:window-x="0"
     inkscape:window-y="24"
     inkscape:window-maximized="1" />
  <metadata
     id="metadata5626">
    <rdf:RDF>
      <cc:Work
         rdf:about="">
        <dc:format>image/svg+xml</dc:format>
        <dc:type
           rdf:resource="http://purl.org/dc/dcmitype/StillImage" />
        <dc:title></dc:title>
      </cc:Work>
    </rdf:RDF>
  </metadata>
  <g
     inkscape:label="Laag 1"
     inkscape:groupmode="layer"
     id="layer1"
     transform="translate(0,-796.36218)">
    <path
       d="M 164.4301,942.93642 H 91.569896 c -1.231459,0 -2.052453,-0.82075 -2.052453,-2.05246 v -24.83404 h -26.88642 c -2.873371,0 -5.131023,-2.25765 -5.131023,-5.13102 0,-2.87329 2.257652,-5.13095 5.131023,-5.13095 H 193.36898 c 2.87337,0 5.13102,2.25766 5.13102,5.13095 0,2.87336 -2.25765,5.13102 -5.13102,5.13102 h -26.8865 v 24.83404 c 0,1.23145 -0.82075,2.05246 -2.05238,2.05246 z"
       id="path3796"
       inkscape:connector-curvature="0"
       style="fill:currentColor" />
  </g>
</svg>
