<?xml version="1.0" encoding="UTF-8" standalone="no"?>
<!-- Created with Inkscape (http://www.inkscape.org/) -->

<svg
   xmlns:dc="http://purl.org/dc/elements/1.1/"
   xmlns:cc="http://creativecommons.org/ns#"
   xmlns:rdf="http://www.w3.org/1999/02/22-rdf-syntax-ns#"
   xmlns:svg="http://www.w3.org/2000/svg"
   xmlns="http://www.w3.org/2000/svg"
   xmlns:sodipodi="http://sodipodi.sourceforge.net/DTD/sodipodi-0.dtd"
   xmlns:inkscape="http://www.inkscape.org/namespaces/inkscape"
   width="256"
   height="256"
   id="svg4426"
   version="1.1"
   inkscape:version="0.48.4 r9939"
   sodipodi:docname="New document 89">
  <defs
     id="defs4428" />
  <sodipodi:namedview
     id="base"
     pagecolor="#ffffff"
     bordercolor="#666666"
     borderopacity="1.0"
     inkscape:pageopacity="0.0"
     inkscape:pageshadow="2"
     inkscape:zoom="0.35"
     inkscape:cx="375"
     inkscape:cy="520"
     inkscape:document-units="px"
     inkscape:current-layer="layer1"
     showgrid="false"
     inkscape:window-width="728"
     inkscape:window-height="383"
     inkscape:window-x="636"
     inkscape:window-y="24"
     inkscape:window-maximized="0" />
  <metadata
     id="metadata4431">
    <rdf:RDF>
      <cc:Work
         rdf:about="">
        <dc:format>image/svg+xml</dc:format>
        <dc:type
           rdf:resource="http://purl.org/dc/dcmitype/StillImage" />
        <dc:title></dc:title>
      </cc:Work>
    </rdf:RDF>
  </metadata>
  <g
     inkscape:label="Layer 1"
     inkscape:groupmode="layer"
     id="layer1"
     transform="translate(128,128)scale(1.5)translate(-128,-128)translate(0,-796.36218)">
    <path
       d="m 148.22461,984.34303 c 0,-4.85385 3.92936,-8.7833 8.78331,-8.7833 4.85386,0 8.78331,3.92945 8.78331,8.7833 0,4.85395 -3.92945,8.78331 -8.78331,8.78331 -4.85395,0 -8.78331,-3.92936 -8.78331,-8.78331 z m -57.784945,0 c 0,-4.85385 3.92935,-8.7833 8.7833,-8.7833 4.853945,0 8.783315,3.92945 8.783315,8.7833 0,4.85395 -3.92936,8.78331 -8.783315,8.78331 -4.85395,0 -8.7833,-3.92936 -8.7833,-8.78331 z M 137.36104,876.16968 c -13.175,0 -27.73676,8.55213 -27.73676,21.03371 0,9.01448 6.2407,13.63726 12.25043,17.56662 6.47187,4.16052 14.56175,6.24079 20.34019,11.55699 7.16539,6.47187 10.63249,15.0241 10.63249,23.8074 0,16.87319 -12.01924,35.3644 -31.66611,45.76562 -0.46215,0.23108 -0.69323,0.46216 -0.92431,0.46216 -3.00486,0 7.8587,-16.64202 8.7833,-17.79769 3.00485,-3.46711 4.16053,-7.85881 4.16053,-12.01933 0,-6.00962 -2.77368,-12.25042 -7.62763,-16.64202 -5.77846,-5.3162 -13.63727,-7.39647 -20.10913,-11.55699 -9.014475,-5.77845 -15.255275,-15.71752 -15.255275,-26.11875 0,-1.38684 0.23108,-2.77369 0.46216,-4.16053 3.69819,-23.57623 22.651635,-41.14284 44.609945,-51.08191 5.77845,-2.54252 12.01924,-4.62278 17.79769,-4.62278 4.62287,0 8.78331,1.15576 12.25042,4.62278 0.23107,0.23108 0.23107,0.46216 0.23107,0.92431 0,5.08512 -14.0995,25.42542 -16.87319,22.65173 -3.00485,-3.00485 -7.16529,-4.39169 -11.32582,-4.39169 z"
       id="path88"
       inkscape:connector-curvature="0"
       style="fill:currentColor" />
  </g>
</svg>
