<?xml version="1.0" encoding="UTF-8" standalone="no"?>
<!-- Created with Inkscape (http://www.inkscape.org/) -->

<svg
   xmlns:dc="http://purl.org/dc/elements/1.1/"
   xmlns:cc="http://creativecommons.org/ns#"
   xmlns:rdf="http://www.w3.org/1999/02/22-rdf-syntax-ns#"
   xmlns:svg="http://www.w3.org/2000/svg"
   xmlns="http://www.w3.org/2000/svg"
   xmlns:sodipodi="http://sodipodi.sourceforge.net/DTD/sodipodi-0.dtd"
   xmlns:inkscape="http://www.inkscape.org/namespaces/inkscape"
   width="256"
   height="256"
   id="svg3122"
   version="1.1"
   inkscape:version="0.48.4 r9939"
   sodipodi:docname="New document 4">
  <defs
     id="defs3124" />
  <sodipodi:namedview
     id="base"
     pagecolor="#ffffff"
     bordercolor="#666666"
     borderopacity="1.0"
     inkscape:pageopacity="0.0"
     inkscape:pageshadow="2"
     inkscape:zoom="0.35"
     inkscape:cx="375"
     inkscape:cy="520"
     inkscape:document-units="px"
     inkscape:current-layer="layer1"
     showgrid="false"
     inkscape:window-width="728"
     inkscape:window-height="383"
     inkscape:window-x="636"
     inkscape:window-y="24"
     inkscape:window-maximized="0" />
  <metadata
     id="metadata3127">
    <rdf:RDF>
      <cc:Work
         rdf:about="">
        <dc:format>image/svg+xml</dc:format>
        <dc:type
           rdf:resource="http://purl.org/dc/dcmitype/StillImage" />
        <dc:title></dc:title>
      </cc:Work>
    </rdf:RDF>
  </metadata>
  <g
     inkscape:label="Layer 1"
     inkscape:groupmode="layer"
     id="layer1"
     transform="translate(128,128)scale(1.5)translate(-128,-128)translate(0,-796.36218)">
    <path
       style="fill:currentColor"
       inkscape:connector-curvature="0"
       d="m 156.98314,940.22659 c 0,2.23727 -1.83051,4.06778 -4.06778,4.06778 -2.23727,0 -4.06778,-1.83051 -4.06778,-4.06778 v -16.47463 l -6.71189,10.1695 c -0.81334,1.22034 -2.03385,1.83051 -3.45761,1.83051 -1.22034,0 -2.23727,-0.40667 -3.05086,-1.42368 l -20.13557,-24.20343 -15.86446,23.7966 c -0.81334,1.22034 -1.83043,1.83051 -3.25419,1.83051 -1.22034,0 -2.44069,-0.40667 -3.25427,-1.42368 L 73.18657,910.12486 c -2.03393,3.25427 -4.2712,6.30513 -6.30513,9.55932 -4.67796,6.9153 -6.91522,15.05087 -6.91522,23.18643 0,8.13565 2.23726,16.27121 6.91522,23.18652 1.83051,2.84743 -0.40667,6.30505 -3.45761,6.30505 -1.42368,0 -2.44069,-0.61001 -3.2542,-1.83052 -5.49154,-8.33898 -8.33898,-18.10172 -8.33898,-27.66105 0,-9.55932 2.84744,-19.32198 8.33898,-27.66097 6.30505,-9.55932 12.61019,-18.91531 18.91524,-28.47455 0.81334,-1.22034 2.03393,-1.83052 3.45761,-1.83052 1.22034,0 2.23726,0.40668 3.05085,1.42368 l 19.93224,24.20344 15.86438,-23.7966 c 0.81334,-1.22034 2.03393,-1.83052 3.45761,-1.83052 1.22034,0 2.23726,0.40668 3.05085,1.42368 l 20.13558,24.20344 0.81334,-1.42376 v -28.67797 c 0,-2.23727 1.83052,-4.06778 4.06778,-4.06778 2.23727,0 4.06779,1.83051 4.06779,4.06778 v 16.47454 l 6.9153,-10.16941 c 0.81334,-1.22034 1.83051,-1.83052 3.25419,-1.83052 1.22035,0 2.44069,0.40668 3.25428,1.42368 l 19.93215,24.20344 c 2.03394,-3.25427 4.2712,-6.30513 6.30514,-9.55932 0.81334,-1.22035 2.03385,-1.83052 3.45761,-1.83052 2.23726,0 4.06778,1.83052 4.06778,4.06778 0,0.81335 -0.40667,1.6271 -0.81335,2.23727 -6.30505,9.55933 -12.61018,18.91523 -18.91523,28.47456 -0.81334,1.22034 -1.83051,1.83051 -3.25427,1.83051 -1.22035,0 -2.44069,-0.40667 -3.2542,-1.42368 l -19.93215,-24.20343 -1.01701,1.42376 v 28.67797 z"
       id="path68" />
  </g>
</svg>
