<?xml version="1.0" encoding="UTF-8" standalone="no"?>
<!-- Created with Inkscape (http://www.inkscape.org/) -->

<svg
   xmlns:dc="http://purl.org/dc/elements/1.1/"
   xmlns:cc="http://creativecommons.org/ns#"
   xmlns:rdf="http://www.w3.org/1999/02/22-rdf-syntax-ns#"
   xmlns:svg="http://www.w3.org/2000/svg"
   xmlns="http://www.w3.org/2000/svg"
   xmlns:sodipodi="http://sodipodi.sourceforge.net/DTD/sodipodi-0.dtd"
   xmlns:inkscape="http://www.inkscape.org/namespaces/inkscape"
   width="256"
   height="256"
   id="svg3750"
   version="1.1"
   inkscape:version="0.48.4 r9939"
   sodipodi:docname="New document 33">
  <defs
     id="defs3752" />
  <sodipodi:namedview
     id="base"
     pagecolor="#ffffff"
     bordercolor="#666666"
     borderopacity="1.0"
     inkscape:pageopacity="0.0"
     inkscape:pageshadow="2"
     inkscape:zoom="0.5"
     inkscape:cx="375"
     inkscape:cy="520"
     inkscape:document-units="px"
     inkscape:current-layer="layer1"
     showgrid="false"
     inkscape:window-width="689"
     inkscape:window-height="399"
     inkscape:window-x="323"
     inkscape:window-y="24"
     inkscape:window-maximized="0" />
  <metadata
     id="metadata3755">
    <rdf:RDF>
      <cc:Work
         rdf:about="">
        <dc:format>image/svg+xml</dc:format>
        <dc:type
           rdf:resource="http://purl.org/dc/dcmitype/StillImage" />
        <dc:title></dc:title>
      </cc:Work>
    </rdf:RDF>
  </metadata>
  <g
     inkscape:label="Layer 1"
     inkscape:groupmode="layer"
     id="layer1"
     transform="translate(0,-796.36215)">
    <path
       style="fill:currentColor"
       inkscape:connector-curvature="0"
       d="m 146.63371,977.84809 c 6.89195,-7.40244 12.50767,-15.82595 12.50767,-26.0362 0,-14.03911 -14.5497,-22.20733 -29.86507,-22.20733 -11.99708,0 -19.14434,9.18918 -19.14434,18.12317 0,5.10523 2.55261,10.21035 7.65774,13.27344 z m 7.65773,4.33935 c 14.03911,7.91303 21.18638,20.16526 21.18638,32.41766 0,18.6338 -16.84702,36.7571 -48.24365,36.7571 -23.99417,0 -46.711985,-13.784 -46.711985,-35.736 0,-12.7629 9.95496,-21.69686 19.39953,-30.63085 -10.46553,-7.14726 -15.57066,-17.10232 -15.57066,-27.05727 0,-17.3575 15.57066,-34.20452 44.925255,-34.20452 20.67579,0 41.09638,9.69976 41.09638,28.07833 0,11.99709 -7.65773,21.69685 -16.08124,30.37555 z m -46.71199,7.40245 c -8.423505,7.40254 -15.825945,15.06021 -15.825945,26.03631 0,17.6127 16.846905,29.8651 35.480665,29.8651 13.78393,0 21.95214,-10.7209 21.95214,-21.1864 0,-6.1262 -2.55261,-12.2524 -8.93399,-15.826 z"
       id="path116" />
    <path
       style="fill:currentColor"
       inkscape:connector-curvature="0"
       d="m 127.1895,862.708 c 13.01805,0 13.52863,-11.23131 13.52863,-26.0362 v -3.57358 -3.82886 c 0,-14.80489 -0.51038,-26.03621 -13.52863,-26.03621 -14.5497,0 -15.57067,13.01805 -15.57067,29.86507 0,16.84692 1.02076,29.60978 15.57067,29.60978 z m 13.52863,2.55261 c -4.33945,1.78674 -8.6788,3.31829 -13.52863,3.31829 -25.78101,0 -43.393715,-11.23131 -43.393715,-35.48068 0,-24.24946 17.612705,-35.73607 43.393715,-35.73607 28.58881,0 43.3937,31.65191 43.3937,63.8143 0,32.67298 -18.37857,63.8143 -48.49883,63.8143 -18.12327,0 -35.225485,-9.95506 -35.225485,-26.29149 0,-9.18929 7.40244,-16.84692 16.591625,-16.84692 9.18928,0 16.84702,7.65763 16.84702,16.84692 0,6.12619 -9.95506,6.38148 -9.95506,12.50757 0,5.10522 5.87089,7.91302 11.74189,7.91302 16.84692,0 19.14425,-16.59172 19.14425,-35.48077 0,-6.12619 -0.51038,-12.25228 -0.51038,-18.37847 z"
       id="path118" />
  </g>
</svg>
