<?xml version="1.0" encoding="UTF-8" standalone="no"?>
<!-- Created with Inkscape (http://www.inkscape.org/) -->

<svg
   xmlns:dc="http://purl.org/dc/elements/1.1/"
   xmlns:cc="http://creativecommons.org/ns#"
   xmlns:rdf="http://www.w3.org/1999/02/22-rdf-syntax-ns#"
   xmlns:svg="http://www.w3.org/2000/svg"
   xmlns="http://www.w3.org/2000/svg"
   xmlns:sodipodi="http://sodipodi.sourceforge.net/DTD/sodipodi-0.dtd"
   xmlns:inkscape="http://www.inkscape.org/namespaces/inkscape"
   width="256"
   height="256"
   id="svg4179"
   version="1.1"
   inkscape:version="0.48.4 r9939"
   sodipodi:docname="New document 57">
  <defs
     id="defs4181" />
  <sodipodi:namedview
     id="base"
     pagecolor="#ffffff"
     bordercolor="#666666"
     borderopacity="1.0"
     inkscape:pageopacity="0.0"
     inkscape:pageshadow="2"
     inkscape:zoom="0.35"
     inkscape:cx="375"
     inkscape:cy="32.584777"
     inkscape:document-units="px"
     inkscape:current-layer="layer1"
     showgrid="false"
     inkscape:window-width="689"
     inkscape:window-height="399"
     inkscape:window-x="323"
     inkscape:window-y="24"
     inkscape:window-maximized="0" />
  <metadata
     id="metadata4184">
    <rdf:RDF>
      <cc:Work
         rdf:about="">
        <dc:format>image/svg+xml</dc:format>
        <dc:type
           rdf:resource="http://purl.org/dc/dcmitype/StillImage" />
        <dc:title></dc:title>
      </cc:Work>
    </rdf:RDF>
  </metadata>
  <g
     inkscape:label="Layer 1"
     inkscape:groupmode="layer"
     id="layer1"
     transform="translate(0,-796.36218)">
    <g
       transform="matrix(63.270626,0,0,63.270626,45.264166,1051.3622)"
       id="g230">
      <path
         style="fill:currentColor"
         inkscape:connector-curvature="0"
         transform="scale(0.004,-0.004)"
         d="m 122,503 c 18,0 34,-16 53,-16 15,0 29,7 42,13 1,1 3,1 4,1 7,0 12,-7 12,-17 V 117 c 0,-48 28,-94 73,-94 8,0 12,-5 12,-11 C 318,6 314,0 306,0 262,0 219,13 175,13 131,13 88,0 44,0 36,0 32,6 32,12 c 0,6 4,11 12,11 45,0 73,46 73,94 v 245 c 0,12 -9,19 -17,19 -4,0 -8,-3 -10,-7 L 26,238 c -3,-6 -7,-9 -12,-9 -8,0 -16,6 -16,14 0,2 1,5 2,7 l 117,250 c 1,2 3,3 5,3 z"
         id="path232" />
      <path
         style="fill:currentColor"
         inkscape:connector-curvature="0"
         transform="matrix(0.004,0,0,-0.004,1.2633,0)"
         d="m 170,256 c -51,0 -53,-44 -53,-102 v -14 -15 c 0,-58 2,-102 53,-102 57,0 61,51 61,117 0,66 -4,116 -61,116 z m -53,10 c 17,7 34,13 53,13 101,0 170,-44 170,-139 C 340,45 271,0 170,0 58,0 0,124 0,250 c 0,128 72,250 190,250 71,0 138,-39 138,-103 0,-36 -29,-66 -65,-66 -36,0 -66,30 -66,66 0,24 39,25 39,49 0,20 -23,31 -46,31 -66,0 -75,-65 -75,-139 0,-24 2,-48 2,-72 z"
         id="path234" />
    </g>
    <path
       style="fill:currentColor"
       inkscape:connector-curvature="0"
       d="m 128.24993,859.11433 c -12.90715,0 -13.41328,11.13563 -13.41328,25.8144 v 3.54313 3.79625 c 0,14.67876 0.50603,25.8144 13.41328,25.8144 14.42575,0 15.43811,-12.90715 15.43811,-29.61065 0,-16.7034 -1.01206,-29.35753 -15.43811,-29.35753 z m -13.41328,-2.53087 c 4.30238,-1.77151 8.60476,-3.29001 13.41328,-3.29001 25.56138,0 43.02403,11.13563 43.02403,35.17841 0,24.04288 -17.46265,35.43163 -43.02403,35.43163 -28.345174,0 -43.024034,-31.38226 -43.024034,-63.27066 0,-32.39463 18.222004,-63.27066 48.085764,-63.27066 17.96878,0 34.9254,9.87025 34.9254,26.06751 0,9.111 -7.33949,16.7034 -16.45038,16.7034 -9.111,0 -16.7035,-7.5924 -16.7035,-16.7034 0,-6.074 9.87025,-6.32711 9.87025,-12.40101 0,-5.06173 -5.82089,-7.84562 -11.64177,-7.84562 -16.7035,0 -18.98125,16.45038 -18.98125,35.17852 0,6.074 0.50603,12.14789 0.50603,18.22189 z"
       id="path236" />
  </g>
</svg>
