<?xml version="1.0" encoding="UTF-8" standalone="no"?>
<!-- Created with Inkscape (http://www.inkscape.org/) -->

<svg
   xmlns:dc="http://purl.org/dc/elements/1.1/"
   xmlns:cc="http://creativecommons.org/ns#"
   xmlns:rdf="http://www.w3.org/1999/02/22-rdf-syntax-ns#"
   xmlns:svg="http://www.w3.org/2000/svg"
   xmlns="http://www.w3.org/2000/svg"
   xmlns:sodipodi="http://sodipodi.sourceforge.net/DTD/sodipodi-0.dtd"
   xmlns:inkscape="http://www.inkscape.org/namespaces/inkscape"
   width="256"
   height="256"
   id="svg3423"
   version="1.1"
   inkscape:version="0.48.4 r9939"
   sodipodi:docname="New document 17">
  <defs
     id="defs3425" />
  <sodipodi:namedview
     id="base"
     pagecolor="#ffffff"
     bordercolor="#666666"
     borderopacity="1.0"
     inkscape:pageopacity="0.0"
     inkscape:pageshadow="2"
     inkscape:zoom="0.35"
     inkscape:cx="-92.142857"
     inkscape:cy="520"
     inkscape:document-units="px"
     inkscape:current-layer="layer1"
     showgrid="false"
     inkscape:window-width="1366"
     inkscape:window-height="744"
     inkscape:window-x="0"
     inkscape:window-y="24"
     inkscape:window-maximized="1" />
  <metadata
     id="metadata3428">
    <rdf:RDF>
      <cc:Work
         rdf:about="">
        <dc:format>image/svg+xml</dc:format>
        <dc:type
           rdf:resource="http://purl.org/dc/dcmitype/StillImage" />
        <dc:title></dc:title>
      </cc:Work>
    </rdf:RDF>
  </metadata>
  <g
     inkscape:label="Layer 1"
     inkscape:groupmode="layer"
     id="layer1"
     transform="translate(0,-796.36218)">
    <g
       transform="matrix(69.374266,0,0,69.374266,12.932374,966.12549)"
       id="g80">
      <path
         style="fill:currentColor"
         inkscape:connector-curvature="0"
         transform="scale(0.004,-0.004)"
         d="m -41,146 c 26,76 82,153 149,153 22,0 36,-20 41,-45 22,26 51,45 81,45 23,0 38,-21 44,-46 22,27 51,46 80,46 33,0 59,-35 59,-69 0,-5 -1,-10 -2,-15 L 376,66 c 0,-2 -1,-4 -1,-5 0,-5 2,-8 7,-8 9,0 27,11 48,31 4,4 9,6 13,6 6,0 11,-4 11,-10 0,-4 -3,-8 -7,-12 -40,-38 -85,-75 -131,-75 -20,0 -32,13 -32,32 0,4 0,7 1,11 l 39,165 c 1,5 2,9 2,14 0,10 -4,18 -14,18 -16,0 -33,-16 -39,-32 L 220,18 C 217,8 208,0 198,0 h -41 c -10,0 -16,8 -13,18 l 52,183 c 2,6 3,11 3,16 0,9 -4,16 -13,16 -16,0 -35,-15 -41,-32 L 83,18 C 80,8 69,0 59,0 H 18 C 8,0 3,8 6,18 l 63,183 c 2,5 2,10 2,15 0,10 -3,17 -13,17 -29,0 -54,-53 -66,-87 -4,-11 -15,-17 -23,-17 -7,0 -12,4 -12,11 0,2 1,4 2,6 z"
         id="path82" />
      <path
         style="fill:currentColor"
         inkscape:connector-curvature="0"
         transform="matrix(0.004,0,0,-0.004,1.7413,0)"
         d="M 253,245 203,82 C 173,-17 82,-173 -15,-173 c -45,0 -87,27 -87,69 0,39 17,77 52,77 24,0 44,-20 44,-44 0,-30 -38,-24 -38,-54 0,-10 11,-11 23,-11 h 6 c 48,0 61,58 73,108 l 68,273 H 77 c -11,0 -19,8 -19,19 0,11 8,19 19,19 h 60 c 32,96 118,191 213,191 45,0 87,-27 87,-69 0,-39 -17,-77 -52,-77 -24,0 -44,19 -44,43 0,30 38,25 38,55 0,10 -10,11 -22,11 h -7 c -62,0 -70,-88 -86,-154 h 55 c 11,0 19,-8 19,-19 0,-11 -8,-19 -19,-19 h -66 z"
         id="path84" />
    </g>
  </g>
</svg>
