<svg xmlns="http://www.w3.org/2000/svg" xmlns:xlink="http://www.w3.org/1999/xlink" version="1.2" width="148.00mm" height="210.00mm" viewBox="0 0 84.2202 119.5016">
<!-- Page: 1/1 -->
<text transform="translate(3.9834, 2.2762)" font-family="Century Schoolbook L" font-size="2.1995" text-anchor="start" fill="currentColor">
<tspan>
 </tspan>
</text>
<text transform="translate(34.5345, 11.6615)" font-family="Century Schoolbook L" font-style="italic" font-size="2.1995" text-anchor="start" fill="currentColor">
<tspan>
8vb</tspan>
</text>
<line transform="translate(38.4196, 10.8762)" stroke-linejoin="round" stroke-linecap="round" stroke-width="0.1000" stroke="currentColor" x1="0" y1="0" x2="1.6000" y2="-0.0000" stroke-dasharray="0.49,0.81"/>
<line transform="translate(40.0196, 10.8762)" stroke-linejoin="round" stroke-linecap="round" stroke-width="0.1000" stroke="currentColor" x1="0" y1="0" x2="0.0000" y2="-1.2000" stroke-dasharray="0.37,0.53"/>
<line transform="translate(38.4196, 10.8762)" stroke-linejoin="round" stroke-linecap="round" stroke-width="0.1000" stroke="currentColor" x1="0" y1="0" x2="0.0000" y2="-0.0000" stroke-dasharray="0.4,0.6"/>
<path transform="translate(4.4834, 9.7762) scale(0.0040, -0.0040)" d="M220 138c56 0 109 -29 109 -91c0 -72 -56 -121 -103 -149c-36 -21 -76 -36 -117 -36c-56 0 -109 29 -109 91c0 72 56 121 103 149c36 21 76 36 117 36z" fill="currentColor"/>
<path transform="translate(38.1034, 9.7762) scale(0.0040, -0.0040)" d="M220 138c56 0 109 -29 109 -91c0 -72 -56 -121 -103 -149c-36 -21 -76 -36 -117 -36c-56 0 -109 29 -109 91c0 72 56 121 103 149c36 21 76 36 117 36z" fill="currentColor"/>
<text transform="translate(0.9244, 9.4274)" font-family="Century Schoolbook L" font-style="italic" font-size="2.1995" text-anchor="start" fill="currentColor">
<tspan>
8va</tspan>
</text>
<line transform="translate(4.7996, 8.6762)" stroke-linejoin="round" stroke-linecap="round" stroke-width="0.1000" stroke="currentColor" x1="0" y1="0" x2="1.6000" y2="-0.0000" stroke-dasharray="0.49,0.81"/>
<line transform="translate(6.3996, 8.6762)" stroke-linejoin="round" stroke-linecap="round" stroke-width="0.1000" stroke="currentColor" x1="0" y1="0" x2="0.0000" y2="1.2000" stroke-dasharray="0.37,0.53"/>
<line transform="translate(4.7996, 8.6762)" stroke-linejoin="round" stroke-linecap="round" stroke-width="0.1000" stroke="currentColor" x1="0" y1="0" x2="0.0000" y2="-0.0000" stroke-dasharray="0.4,0.6"/>
<text transform="translate(42.1101, 117.2254)" font-family="Century Schoolbook L" font-size="2.1995" text-anchor="start" fill="currentColor">
<tspan/>
</text>
</svg>
