<?xml version="1.0" encoding="UTF-8" standalone="no"?>
<!-- Created with Inkscape (http://www.inkscape.org/) -->

<svg
   xmlns:dc="http://purl.org/dc/elements/1.1/"
   xmlns:cc="http://creativecommons.org/ns#"
   xmlns:rdf="http://www.w3.org/1999/02/22-rdf-syntax-ns#"
   xmlns:svg="http://www.w3.org/2000/svg"
   xmlns="http://www.w3.org/2000/svg"
   xmlns:sodipodi="http://sodipodi.sourceforge.net/DTD/sodipodi-0.dtd"
   xmlns:inkscape="http://www.inkscape.org/namespaces/inkscape"
   width="256"
   height="256"
   id="svg4017"
   version="1.1"
   inkscape:version="0.48.4 r9939"
   sodipodi:docname="New document 50">
  <defs
     id="defs4019" />
  <sodipodi:namedview
     id="base"
     pagecolor="#ffffff"
     bordercolor="#666666"
     borderopacity="1.0"
     inkscape:pageopacity="0.0"
     inkscape:pageshadow="2"
     inkscape:zoom="0.5"
     inkscape:cx="375"
     inkscape:cy="520"
     inkscape:document-units="px"
     inkscape:current-layer="layer1"
     showgrid="false"
     inkscape:window-width="728"
     inkscape:window-height="383"
     inkscape:window-x="636"
     inkscape:window-y="24"
     inkscape:window-maximized="0" />
  <metadata
     id="metadata4022">
    <rdf:RDF>
      <cc:Work
         rdf:about="">
        <dc:format>image/svg+xml</dc:format>
        <dc:type
           rdf:resource="http://purl.org/dc/dcmitype/StillImage" />
        <dc:title></dc:title>
      </cc:Work>
    </rdf:RDF>
  </metadata>
  <g
     inkscape:label="Layer 1"
     inkscape:groupmode="layer"
     id="layer1"
     transform="translate(0,-796.36218)">
    <g
       transform="matrix(70.018836,0,0,70.018836,-5.1618223,944.80768)"
       id="g138">
      <path
         style="fill:currentColor"
         inkscape:connector-curvature="0"
         transform="scale(0.004,-0.004)"
         d="m 180,216 c 0,10 9,19 9,29 0,13 -6,23 -18,23 -26,0 -47,-20 -47,-45 0,-17 16,-28 31,-37 33,-19 68,-42 68,-80 C 223,45 167,0 103,0 60,0 22,28 22,68 22,89 34,110 53,110 71,110 85,96 85,78 85,65 64,62 64,49 64,34 82,27 99,27 c 33,0 64,20 64,51 0,57 -100,60 -100,117 0,54 45,97 99,97 56,0 79,-34 79,-62 0,-19 -11,-36 -30,-36 -18,0 -31,11 -31,22 z"
         id="path140" />
      <path
         style="fill:currentColor"
         inkscape:connector-curvature="0"
         transform="matrix(0.004,0,0,-0.004,0.8194,0)"
         d="M 233,243 C 177,243 131,136 131,70 c 0,-22 8,-38 30,-38 64,0 97,126 97,178 0,18 -7,33 -25,33 z M 112,-146 c -38,0 -78,5 -116,5 -39,0 -78,-5 -115,-5 -9,0 -14,7 -14,14 0,18 31,15 48,16 22,1 47,5 54,25 L 71,209 c 2,7 4,14 4,20 0,8 -2,14 -11,14 -33,0 -63,-60 -79,-97 -5,-12 -15,-17 -24,-17 -8,0 -14,4 -14,12 0,2 1,5 2,8 30,68 72,143 132,143 35,0 59,-21 66,-52 29,31 67,52 103,52 69,0 107,-49 107,-114 0,-21 -4,-44 -12,-67 C 325,53 254,-8 198,-8 c -27,0 -52,5 -73,17 -4,2 -7,3 -11,3 -7,0 -14,-3 -16,-9 L 69,-83 c -1,-2 -1,-5 -1,-7 0,-20 21,-26 44,-28 9,-1 13,-8 13,-14 0,-7 -4,-14 -13,-14 z"
         id="path142" />
      <path
         style="fill:currentColor"
         inkscape:connector-curvature="0"
         transform="matrix(0.004,0,0,-0.004,2.2876,0)"
         d="M 233,243 C 177,243 131,136 131,70 c 0,-22 8,-38 30,-38 64,0 97,126 97,178 0,18 -7,33 -25,33 z M 112,-146 c -38,0 -78,5 -116,5 -39,0 -78,-5 -115,-5 -9,0 -14,7 -14,14 0,18 31,15 48,16 22,1 47,5 54,25 L 71,209 c 2,7 4,14 4,20 0,8 -2,14 -11,14 -33,0 -63,-60 -79,-97 -5,-12 -15,-17 -24,-17 -8,0 -14,4 -14,12 0,2 1,5 2,8 30,68 72,143 132,143 35,0 59,-21 66,-52 29,31 67,52 103,52 69,0 107,-49 107,-114 0,-21 -4,-44 -12,-67 C 325,53 254,-8 198,-8 c -27,0 -52,5 -73,17 -4,2 -7,3 -11,3 -7,0 -14,-3 -16,-9 L 69,-83 c -1,-2 -1,-5 -1,-7 0,-20 21,-26 44,-28 9,-1 13,-8 13,-14 0,-7 -4,-14 -13,-14 z"
         id="path144" />
    </g>
  </g>
</svg>
