<?xml version="1.0" encoding="UTF-8" standalone="no"?>
<!-- Created with Inkscape (http://www.inkscape.org/) -->

<svg
   xmlns:dc="http://purl.org/dc/elements/1.1/"
   xmlns:cc="http://creativecommons.org/ns#"
   xmlns:rdf="http://www.w3.org/1999/02/22-rdf-syntax-ns#"
   xmlns:svg="http://www.w3.org/2000/svg"
   xmlns="http://www.w3.org/2000/svg"
   xmlns:sodipodi="http://sodipodi.sourceforge.net/DTD/sodipodi-0.dtd"
   xmlns:inkscape="http://www.inkscape.org/namespaces/inkscape"
   width="256"
   height="256"
   id="svg3976"
   version="1.1"
   inkscape:version="0.48.4 r9939"
   sodipodi:docname="New document 61">
  <defs
     id="defs3978" />
  <sodipodi:namedview
     id="base"
     pagecolor="#ffffff"
     bordercolor="#666666"
     borderopacity="1.0"
     inkscape:pageopacity="0.0"
     inkscape:pageshadow="2"
     inkscape:zoom="0.35"
     inkscape:cx="375"
     inkscape:cy="302.86735"
     inkscape:document-units="px"
     inkscape:current-layer="layer1"
     showgrid="false"
     inkscape:window-width="728"
     inkscape:window-height="383"
     inkscape:window-x="636"
     inkscape:window-y="24"
     inkscape:window-maximized="0" />
  <metadata
     id="metadata3981">
    <rdf:RDF>
      <cc:Work
         rdf:about="">
        <dc:format>image/svg+xml</dc:format>
        <dc:type
           rdf:resource="http://purl.org/dc/dcmitype/StillImage" />
        <dc:title></dc:title>
      </cc:Work>
    </rdf:RDF>
  </metadata>
  <g
     inkscape:label="Layer 1"
     inkscape:groupmode="layer"
     id="layer1"
     transform="translate(128,128)scale(1.5)translate(-128,-128)translate(0,-796.36218)">
    <path
       style="fill:currentColor"
       inkscape:connector-curvature="0"
       d="m 209.6638,912.58617 c 1.02372,-1.536 2.56004,-2.30401 4.35197,-2.30401 2.81608,0 5.12008,2.30401 5.12008,5.11998 0,1.02373 -0.51187,2.04798 -1.02373,2.81598 -7.93606,12.032 -15.87201,23.80806 -23.80807,35.84006 -1.02373,1.536 -2.30399,2.304 -4.09593,2.304 -1.536,0 -3.07201,-0.51186 -4.09605,-1.79203 l -25.08793,-30.46395 -19.96805,29.95198 c -1.02373,1.536 -2.55994,2.304 -4.35198,2.304 -1.536,0 -2.81597,-0.51186 -3.84001,-1.79203 L 107.52014,924.1062 87.552185,954.05818 c -1.02373,1.536 -2.30401,2.304 -4.09605,2.304 -1.536,0 -3.07201,-0.51186 -4.09594,-1.79203 L 54.272165,924.1062 c -2.55994,4.09594 -5.37602,7.93595 -7.93596,12.032 -1.02372,1.536 -2.56004,2.30401 -4.35197,2.30401 -2.81608,0 -5.12008,-2.30401 -5.12008,-5.12009 0,-1.02373 0.51186,-2.04797 1.02372,-2.81597 7.93596,-12.032 15.87201,-23.80796 23.80796,-35.83996 1.02373,-1.536 2.56005,-2.30401 4.35208,-2.30401 1.53591,0 2.81598,0.51187 3.83991,1.79194 l 25.08804,30.46405 19.967945,-29.95198 c 1.02372,-1.536 2.56004,-2.30401 4.35208,-2.30401 1.536,0 2.81597,0.51187 3.8399,1.79194 l 25.34407,30.46405 19.96795,-29.95198 c 1.02373,-1.536 2.30401,-2.30401 4.09605,-2.30401 1.536,0 3.07201,0.51187 4.09594,1.79194 l 25.08803,30.46405 c 2.55994,-4.09605 5.37602,-7.93606 7.93596,-12.032 z"
       id="path18" />
  </g>
</svg>
