<?xml version="1.0" encoding="UTF-8" standalone="no"?>
<!-- Created with Inkscape (http://www.inkscape.org/) -->

<svg
   xmlns:dc="http://purl.org/dc/elements/1.1/"
   xmlns:cc="http://creativecommons.org/ns#"
   xmlns:rdf="http://www.w3.org/1999/02/22-rdf-syntax-ns#"
   xmlns:svg="http://www.w3.org/2000/svg"
   xmlns="http://www.w3.org/2000/svg"
   xmlns:sodipodi="http://sodipodi.sourceforge.net/DTD/sodipodi-0.dtd"
   xmlns:inkscape="http://www.inkscape.org/namespaces/inkscape"
   width="256"
   height="256"
   id="svg3702"
   version="1.1"
   inkscape:version="0.48.4 r9939"
   sodipodi:docname="New document 30">
  <defs
     id="defs3704" />
  <sodipodi:namedview
     id="base"
     pagecolor="#ffffff"
     bordercolor="#666666"
     borderopacity="1.0"
     inkscape:pageopacity="0.0"
     inkscape:pageshadow="2"
     inkscape:zoom="0.35"
     inkscape:cx="375"
     inkscape:cy="520"
     inkscape:document-units="px"
     inkscape:current-layer="layer1"
     showgrid="false"
     inkscape:window-width="689"
     inkscape:window-height="399"
     inkscape:window-x="323"
     inkscape:window-y="24"
     inkscape:window-maximized="0" />
  <metadata
     id="metadata3707">
    <rdf:RDF>
      <cc:Work
         rdf:about="">
        <dc:format>image/svg+xml</dc:format>
        <dc:type
           rdf:resource="http://purl.org/dc/dcmitype/StillImage" />
        <dc:title></dc:title>
      </cc:Work>
    </rdf:RDF>
  </metadata>
  <g
     inkscape:label="Layer 1"
     inkscape:groupmode="layer"
     id="layer1"
     transform="translate(0,-796.36215)">
    <path
       style="fill:currentColor"
       inkscape:connector-curvature="0"
       d="m 146.63376,977.84808 c 6.89196,-7.40243 12.50756,-15.82595 12.50756,-26.0362 0,-14.03922 -14.54959,-22.20743 -29.86506,-22.20743 -11.99709,0 -19.14424,9.18928 -19.14424,18.12327 0,5.10513 2.55251,10.21025 7.65773,13.27334 z m 7.65773,4.33935 c 14.03912,7.91293 21.18637,20.16527 21.18637,32.41767 0,18.6338 -16.84702,36.7571 -48.24363,36.7571 -23.99418,0 -46.71209,-13.784 -46.71209,-35.7361 0,-12.7629 9.95505,-21.69687 19.39963,-30.63087 -10.46564,-7.14715 -15.57076,-17.10221 -15.57076,-27.05726 0,-17.3574 15.57076,-34.20442 44.92525,-34.20442 20.67588,0 41.09638,9.69976 41.09638,28.07833 0,11.99709 -7.65764,21.69685 -16.08115,30.37555 z m -46.71209,7.40245 c -8.4234,7.40244 -15.82595,15.06022 -15.82595,26.03622 0,17.6128 16.84702,29.8651 35.48078,29.8651 13.78392,0 21.95214,-10.7208 21.95214,-21.1863 0,-6.1262 -2.55261,-12.2524 -8.93399,-15.826 z"
       id="path128" />
    <path
       style="fill:currentColor"
       inkscape:connector-curvature="0"
       d="m 146.63376,851.47668 c 6.89196,-7.40244 12.50756,-15.82596 12.50756,-26.0362 0,-14.03922 -14.54959,-22.20744 -29.86506,-22.20744 -11.99709,0 -19.14424,9.18929 -19.14424,18.12328 0,5.10512 2.55251,10.21024 7.65773,13.27334 z m 7.65773,4.33936 c 14.03912,7.91292 21.18637,20.16529 21.18637,32.41768 0,18.63376 -16.84702,36.75703 -48.24363,36.75703 -23.99418,0 -46.71209,-13.78392 -46.71209,-35.73607 0,-12.76286 9.95505,-21.69685 19.39963,-30.63084 -10.46564,-7.14715 -15.57076,-17.10221 -15.57076,-27.05727 0,-17.3574 15.57076,-34.20442 44.92525,-34.20442 20.67588,0 41.09638,9.69976 41.09638,28.07834 0,11.99698 -7.65764,21.69685 -16.08115,30.37555 z m -46.71209,7.40243 c -8.4234,7.40245 -15.82595,15.06019 -15.82595,26.03621 0,17.6128 16.84702,29.86506 35.48078,29.86506 13.78392,0 21.95214,-10.72073 21.95214,-21.18626 0,-6.12618 -2.55261,-12.25238 -8.93399,-15.82596 z"
       id="path130" />
  </g>
</svg>
