<?xml version="1.0" encoding="UTF-8" standalone="no"?>
<!-- Created with Inkscape (http://www.inkscape.org/) -->

<svg
   xmlns:dc="http://purl.org/dc/elements/1.1/"
   xmlns:cc="http://creativecommons.org/ns#"
   xmlns:rdf="http://www.w3.org/1999/02/22-rdf-syntax-ns#"
   xmlns:svg="http://www.w3.org/2000/svg"
   xmlns="http://www.w3.org/2000/svg"
   xmlns:sodipodi="http://sodipodi.sourceforge.net/DTD/sodipodi-0.dtd"
   xmlns:inkscape="http://www.inkscape.org/namespaces/inkscape"
   width="256"
   height="256"
   id="svg6584"
   version="1.1"
   inkscape:version="0.48.4 r9939"
   sodipodi:docname="Nieuw document 92">
  <defs
     id="defs6586" />
  <sodipodi:namedview
     id="base"
     pagecolor="#ffffff"
     bordercolor="#666666"
     borderopacity="1.0"
     inkscape:pageopacity="0.0"
     inkscape:pageshadow="2"
     inkscape:zoom="0.35"
     inkscape:cx="-33.571429"
     inkscape:cy="520"
     inkscape:document-units="px"
     inkscape:current-layer="layer1"
     showgrid="false"
     inkscape:window-width="1024"
     inkscape:window-height="744"
     inkscape:window-x="0"
     inkscape:window-y="24"
     inkscape:window-maximized="1" />
  <metadata
     id="metadata6589">
    <rdf:RDF>
      <cc:Work
         rdf:about="">
        <dc:format>image/svg+xml</dc:format>
        <dc:type
           rdf:resource="http://purl.org/dc/dcmitype/StillImage" />
        <dc:title></dc:title>
      </cc:Work>
    </rdf:RDF>
  </metadata>
  <g
     inkscape:label="Laag 1"
     inkscape:groupmode="layer"
     id="layer1"
     transform="translate(0,-796.36218)">
    <path
       d="m 124.96003,924.36218 c 0,7.99994 0.95975,18.24005 10.56003,18.24005 7.68002,0 14.08,-8.64002 22.07993,-8.64002 31.36004,0 58.23999,23.68002 58.23999,54.39997 0,42.87992 -22.39998,64.00002 -65.59997,64.00002 -20.80001,0 -38.72001,-15.6801 -38.72001,-36.1601 0,-10.5599 8.64002,-19.1999 19.20005,-19.1999 10.56003,0 19.51996,8.64 19.51996,19.1999 0,9.6001 -11.52003,9.9201 -11.52003,19.5201 0,5.44 5.4401,8.96 11.52003,8.96 29.12,0 34.55997,-23.0401 34.55997,-56.32002 0,-27.52003 -3.51997,-46.71995 -27.19999,-46.71995 -17.59996,0 -28.79995,17.92 -28.79995,37.11992 0,2.55997 -1.92,3.84001 -3.84001,3.84001 -1.92,0 -4.15992,-1.27966 -4.15992,-3.84001 0,-18.88 -7.68002,-36.80001 -21.12006,-49.59996 v 119.99991 c 0,1.92 -1.27966,3.2001 -3.20005,3.2001 h -5.43997 c -1.92001,0 -3.19993,-1.2797 -3.19993,-3.2001 V 799.56223 c 0,-1.92 1.27967,-3.20005 3.19993,-3.20005 H 96.48 c 1.92,0 3.20005,1.27966 3.20005,3.20005 v 119.99994 c 13.44004,-12.79995 21.12006,-30.71996 21.12006,-49.59996 0,-2.55997 2.23992,-3.84001 4.15992,-3.84001 1.92001,0 3.84001,1.27966 3.84001,3.84001 0,19.19992 11.19999,37.11992 28.79995,37.11992 23.68002,0 27.19999,-19.19992 27.19999,-46.71995 0,-33.28005 -5.43997,-55.99994 -34.55997,-55.99994 -6.07993,0 -11.52003,3.19993 -11.52003,8.6399 0,9.60002 11.52003,9.92007 11.52003,19.52009 0,10.5599 -8.95993,19.19993 -19.51996,19.19993 -10.56003,0 -19.20005,-8.64003 -19.20005,-19.19993 0,-20.48009 17.92,-36.16005 38.72001,-36.16005 43.19999,0 65.59997,21.12006 65.59997,64 0,30.71995 -26.87995,54.39997 -58.23999,54.39997 -7.99993,0 -14.39991,-8.64002 -22.07993,-8.64002 -9.60002,0 -10.56003,10.24011 -10.56003,18.24005 z M 72.80011,1052.3622 H 43.36007 c -1.92,0 -3.20005,-1.2797 -3.20005,-3.2001 V 799.56223 c 0,-1.92 1.27966,-3.20005 3.20005,-3.20005 h 29.44004 c 1.92,0 3.19992,1.27966 3.19992,3.20005 v 249.59987 c 0,1.92 -1.27966,3.2001 -3.19992,3.2001 z"
       id="path6494"
       inkscape:connector-curvature="0"
       style="fill:currentColor" />
  </g>
</svg>
