<?xml version="1.0" encoding="UTF-8" standalone="no"?>
<!-- Created with Inkscape (http://www.inkscape.org/) -->

<svg
   xmlns:dc="http://purl.org/dc/elements/1.1/"
   xmlns:cc="http://creativecommons.org/ns#"
   xmlns:rdf="http://www.w3.org/1999/02/22-rdf-syntax-ns#"
   xmlns:svg="http://www.w3.org/2000/svg"
   xmlns="http://www.w3.org/2000/svg"
   xmlns:sodipodi="http://sodipodi.sourceforge.net/DTD/sodipodi-0.dtd"
   xmlns:inkscape="http://www.inkscape.org/namespaces/inkscape"
   width="256"
   height="256"
   id="svg3931"
   version="1.1"
   inkscape:version="0.48.4 r9939"
   sodipodi:docname="New document 58">
  <defs
     id="defs3933" />
  <sodipodi:namedview
     id="base"
     pagecolor="#ffffff"
     bordercolor="#666666"
     borderopacity="1.0"
     inkscape:pageopacity="0.0"
     inkscape:pageshadow="2"
     inkscape:zoom="0.35"
     inkscape:cx="375"
     inkscape:cy="520"
     inkscape:document-units="px"
     inkscape:current-layer="layer1"
     showgrid="false"
     inkscape:window-width="728"
     inkscape:window-height="383"
     inkscape:window-x="636"
     inkscape:window-y="357"
     inkscape:window-maximized="0" />
  <metadata
     id="metadata3936">
    <rdf:RDF>
      <cc:Work
         rdf:about="">
        <dc:format>image/svg+xml</dc:format>
        <dc:type
           rdf:resource="http://purl.org/dc/dcmitype/StillImage" />
        <dc:title></dc:title>
      </cc:Work>
    </rdf:RDF>
  </metadata>
  <g
     inkscape:label="Layer 1"
     inkscape:groupmode="layer"
     id="layer1"
     transform="translate(128,128)scale(1.5)translate(-128,-128)translate(0,-796.36218)">
    <path
       style="fill:currentColor"
       inkscape:connector-curvature="0"
       d="m 151.76069,952.52986 c 0,2.10776 -1.72456,3.83232 -3.83232,3.83232 -2.10777,0 -3.83232,-1.72456 -3.83232,-3.83232 v -15.52101 l -6.32338,9.58084 c -0.76626,1.14971 -1.91611,1.72456 -3.25747,1.72456 -1.1497,0 -2.10776,-0.38313 -2.87426,-1.34135 L 112.6709,924.17054 97.724745,946.58969 c -0.76626,1.14971 -1.72448,1.72456 -3.06582,1.72456 -1.14971,0 -2.29941,-0.38313 -3.06591,-1.34135 l -18.7784,-22.80236 c -1.9162,3.0659 -4.02396,5.94008 -5.94016,9.00599 -0.76627,1.1497 -1.91612,1.72455 -3.25747,1.72455 -2.10777,0 -3.83232,-1.72455 -3.83232,-3.83232 0,-0.76626 0.38313,-1.53299 0.76626,-2.10776 5.94009,-9.00599 11.88018,-17.82042 17.82034,-26.82641 0.76626,-1.1497 1.91612,-1.72456 3.25747,-1.72456 1.1497,0 2.10777,0.38314 2.87426,1.34135 l 18.778485,22.80237 14.94608,-22.41916 c 0.76626,-1.1497 1.9162,-1.72456 3.25747,-1.72456 1.1497,0 2.10776,0.38314 2.87426,1.34135 l 18.97004,22.80237 0.76627,-1.34127 V 896.1945 c 0,-2.10776 1.72455,-3.83232 3.83232,-3.83232 2.10776,0 3.83232,1.72456 3.83232,3.83232 v 15.52093 l 6.51502,-9.58084 c 0.76625,-1.1497 1.72455,-1.72456 3.06581,-1.72456 1.14972,0 2.29941,0.38314 3.06591,1.34135 l 18.7784,22.80237 c 1.9162,-3.06583 4.02396,-5.94009 5.94016,-9.006 0.76627,-1.1497 1.91612,-1.72455 3.25747,-1.72455 2.10777,0 3.83232,1.72455 3.83232,3.8324 0,0.76626 -0.38313,1.53291 -0.76626,2.10776 -5.94009,9.00599 -11.88025,17.82034 -17.82034,26.82633 -0.76626,1.14971 -1.72456,1.72456 -3.0659,1.72456 -1.14971,0 -2.29941,-0.38313 -3.06583,-1.34135 l -18.7784,-22.80236 -0.95814,1.34134 v 27.01798 z"
       id="path20" />
  </g>
</svg>
