<?xml version="1.0" encoding="UTF-8" standalone="no"?>
<!-- Created with Inkscape (http://www.inkscape.org/) -->

<svg
   xmlns:dc="http://purl.org/dc/elements/1.1/"
   xmlns:cc="http://creativecommons.org/ns#"
   xmlns:rdf="http://www.w3.org/1999/02/22-rdf-syntax-ns#"
   xmlns:svg="http://www.w3.org/2000/svg"
   xmlns="http://www.w3.org/2000/svg"
   xmlns:sodipodi="http://sodipodi.sourceforge.net/DTD/sodipodi-0.dtd"
   xmlns:inkscape="http://www.inkscape.org/namespaces/inkscape"
   width="256"
   height="256"
   id="svg3248"
   version="1.1"
   inkscape:version="0.48.4 r9939"
   sodipodi:docname="New document 12">
  <defs
     id="defs3250" />
  <sodipodi:namedview
     id="base"
     pagecolor="#ffffff"
     bordercolor="#666666"
     borderopacity="1.0"
     inkscape:pageopacity="0.0"
     inkscape:pageshadow="2"
     inkscape:zoom="0.35"
     inkscape:cx="375"
     inkscape:cy="520"
     inkscape:document-units="px"
     inkscape:current-layer="layer1"
     showgrid="false"
     inkscape:window-width="728"
     inkscape:window-height="383"
     inkscape:window-x="636"
     inkscape:window-y="24"
     inkscape:window-maximized="0" />
  <metadata
     id="metadata3253">
    <rdf:RDF>
      <cc:Work
         rdf:about="">
        <dc:format>image/svg+xml</dc:format>
        <dc:type
           rdf:resource="http://purl.org/dc/dcmitype/StillImage" />
        <dc:title></dc:title>
      </cc:Work>
    </rdf:RDF>
  </metadata>
  <g
     inkscape:label="Layer 1"
     inkscape:groupmode="layer"
     id="layer1"
     transform="translate(128,128)scale(2)translate(-128,-128)translate(0,-796.36218)">
    <path
       style="fill:currentColor"
       inkscape:connector-curvature="0"
       d="m 187.99992,925.96222 c 0.71092,-1.06667 1.7778,-1.60001 3.0222,-1.60001 1.95554,0 3.55555,1.60001 3.55555,3.55554 0,0.71093 -0.35546,1.42221 -0.71093,1.95554 -5.51108,8.35556 -11.02223,16.53332 -16.53331,24.88888 -0.71093,1.06667 -1.60001,1.60001 -2.84448,1.60001 -1.0666,0 -2.13327,-0.35547 -2.84441,-1.24441 l -17.42218,-21.1556 -13.86672,20.8 c -0.71092,1.06667 -1.77773,1.60001 -3.0222,1.60001 -1.06667,0 -1.95554,-0.35547 -2.66668,-1.24441 l -17.59999,-21.1556 -13.86664,20.8 c -0.71092,1.06667 -1.6,1.60001 -2.84448,1.60001 -1.06667,0 -2.13334,-0.35547 -2.8444,-1.24441 l -17.42226,-21.1556 c -1.77781,2.84448 -3.73335,5.51115 -5.51108,8.35556 -0.71092,1.06667 -1.77781,1.60001 -3.02228,1.60001 -1.2444,0 -2.13334,-0.71093 -2.84441,-1.77774 -4.80001,-7.28889 -7.28889,-15.64445 -7.28889,-24.00001 0,-8.35556 2.48888,-16.88892 7.28889,-24.17781 0.71093,-1.06667 1.60001,-1.6 2.84441,-1.6 2.66667,0 4.62221,3.0222 3.02228,5.51108 -4.08895,6.04449 -6.04449,13.15557 -6.04449,20.26673 0,5.33328 1.06667,10.4889 3.37781,15.28885 4.44441,-6.75556 8.8889,-13.15551 13.33331,-19.91113 0.71092,-1.0666 1.77781,-1.59994 3.02221,-1.59994 1.06667,0 1.95561,0.35546 2.66667,1.2444 l 17.42226,21.15561 13.86664,-20.80007 c 0.71093,-1.0666 1.77781,-1.59994 3.02221,-1.59994 1.06667,0 1.95561,0.35546 2.66668,1.2444 l 17.59998,21.15561 13.86672,-20.80007 c 0.71092,-1.0666 1.6,-1.59994 2.8444,-1.59994 1.06667,0 2.13334,0.35546 2.84448,1.2444 l 17.42226,21.15561 c 1.77773,-2.84448 3.73327,-5.51116 5.51108,-8.35556 z"
       id="path28" />
  </g>
</svg>
