<?xml version="1.0" encoding="UTF-8" standalone="no"?>
<!-- Created with Inkscape (http://www.inkscape.org/) -->

<svg
   xmlns:dc="http://purl.org/dc/elements/1.1/"
   xmlns:cc="http://creativecommons.org/ns#"
   xmlns:rdf="http://www.w3.org/1999/02/22-rdf-syntax-ns#"
   xmlns:svg="http://www.w3.org/2000/svg"
   xmlns="http://www.w3.org/2000/svg"
   xmlns:sodipodi="http://sodipodi.sourceforge.net/DTD/sodipodi-0.dtd"
   xmlns:inkscape="http://www.inkscape.org/namespaces/inkscape"
   width="256"
   height="256"
   id="svg3684"
   version="1.1"
   inkscape:version="0.48.4 r9939"
   sodipodi:docname="New document 28">
  <defs
     id="defs3686" />
  <sodipodi:namedview
     id="base"
     pagecolor="#ffffff"
     bordercolor="#666666"
     borderopacity="1.0"
     inkscape:pageopacity="0.0"
     inkscape:pageshadow="2"
     inkscape:zoom="0.35"
     inkscape:cx="375"
     inkscape:cy="520"
     inkscape:document-units="px"
     inkscape:current-layer="layer1"
     showgrid="false"
     inkscape:window-width="689"
     inkscape:window-height="399"
     inkscape:window-x="323"
     inkscape:window-y="24"
     inkscape:window-maximized="0" />
  <metadata
     id="metadata3689">
    <rdf:RDF>
      <cc:Work
         rdf:about="">
        <dc:format>image/svg+xml</dc:format>
        <dc:type
           rdf:resource="http://purl.org/dc/dcmitype/StillImage" />
        <dc:title></dc:title>
      </cc:Work>
    </rdf:RDF>
  </metadata>
  <g
     inkscape:label="Layer 1"
     inkscape:groupmode="layer"
     id="layer1"
     transform="translate(0,-796.36218)">
    <path
       style="fill:currentColor"
       inkscape:connector-curvature="0"
       d="m 162.20005,917.76229 c -11.76007,0 -18.00005,-10.08003 -18.00005,-17.99996 0,-9.12 6.48002,-18.48003 17.28005,-18.48003 0.95975,0 2.15991,0 3.35998,0.23994 -6.72005,-8.88006 -17.28006,-14.16001 -28.79999,-14.16001 -25.44002,0 -27.12004,17.51999 -27.12004,44.63995 v 12.24003 12.24004 c 0,27.11995 1.68002,44.87997 27.12004,44.87997 19.19993,0 33.35994,-16.79998 37.91999,-36.24004 0.47987,-1.67994 1.67993,-2.39994 2.88,-2.39994 1.44,0 3.11995,0.95974 3.11995,2.88 0,22.56001 -25.19998,41.75994 -43.91994,41.75994 -16.32002,0 -32.88006,-5.04001 -44.160075,-16.79999 -11.75997,-12.24003 -15.83995,-29.27996 -15.83995,-46.31998 0,-17.04002 4.07998,-34.08004 15.83995,-46.31998 11.280015,-11.76007 27.840055,-16.56005 44.160075,-16.56005 20.87996,0 38.39995,15.35998 41.99996,36.00002 0.23994,1.19997 0.23994,2.16 0.23994,3.12003 0,9.59997 -7.20002,17.27996 -16.07999,17.27996 z"
       id="path76" />
  </g>
</svg>
