<?xml version="1.0" encoding="UTF-8" standalone="no"?>
<!-- Created with Inkscape (http://www.inkscape.org/) -->

<svg
   xmlns:dc="http://purl.org/dc/elements/1.1/"
   xmlns:cc="http://creativecommons.org/ns#"
   xmlns:rdf="http://www.w3.org/1999/02/22-rdf-syntax-ns#"
   xmlns:svg="http://www.w3.org/2000/svg"
   xmlns="http://www.w3.org/2000/svg"
   xmlns:sodipodi="http://sodipodi.sourceforge.net/DTD/sodipodi-0.dtd"
   xmlns:inkscape="http://www.inkscape.org/namespaces/inkscape"
   width="256"
   height="256"
   id="svg3251"
   version="1.1"
   inkscape:version="0.48.4 r9939"
   sodipodi:docname="Nieuw document 2">
  <defs
     id="defs3253" />
  <sodipodi:namedview
     id="base"
     pagecolor="#ffffff"
     bordercolor="#666666"
     borderopacity="1.0"
     inkscape:pageopacity="0.0"
     inkscape:pageshadow="2"
     inkscape:zoom="0.35"
     inkscape:cx="375"
     inkscape:cy="520"
     inkscape:document-units="px"
     inkscape:current-layer="layer1"
     showgrid="false"
     inkscape:window-width="762"
     inkscape:window-height="399"
     inkscape:window-x="250"
     inkscape:window-y="25"
     inkscape:window-maximized="0" />
  <metadata
     id="metadata3256">
    <rdf:RDF>
      <cc:Work
         rdf:about="">
        <dc:format>image/svg+xml</dc:format>
        <dc:type
           rdf:resource="http://purl.org/dc/dcmitype/StillImage" />
        <dc:title></dc:title>
      </cc:Work>
    </rdf:RDF>
  </metadata>
  <g
     inkscape:label="Laag 1"
     inkscape:groupmode="layer"
     id="layer1"
     transform="translate(0,-796.36218)">
    <path
       style="fill:currentColor"
       inkscape:connector-curvature="0"
       d="m 118.9164,924.441 c 4.54193,0 8.57922,4.0373 13.37341,4.0373 3.78493,0 7.31751,-1.76634 10.59782,-3.28031 0.25226,-0.25227 0.75678,-0.25227 1.00905,-0.25227 1.76623,0 3.02794,1.76634 3.02794,4.28957 v 92.60451 c 0,12.1118 7.06515,23.7189 18.41996,23.7189 2.0186,0 3.02795,1.2616 3.02795,2.7755 0,1.514 -1.00905,3.028 -3.02795,3.028 -11.10245,0 -21.95263,-3.2802 -33.05508,-3.2802 -11.10244,0 -21.95251,3.2802 -33.054965,3.2802 -2.0186,0 -3.02795,-1.514 -3.02795,-3.028 0,-1.5139 1.00905,-2.7755 3.02795,-2.7755 11.354805,0 18.419955,-11.6071 18.419955,-23.7189 v -61.8204 c 0,-3.02795 -2.27097,-4.79429 -4.28955,-4.79429 -1.00905,0 -2.0186,0.75679 -2.52333,1.76634 l -16.148995,34.31658 c -0.75679,1.51398 -1.76624,2.27096 -3.02795,2.27096 -2.0186,10e-5 -4.0372,-1.51387 -4.0372,-3.53257 0,-0.50452 0.25226,-1.26161 0.50453,-1.76624 l 29.522395,-63.08209 c 0.25227,-0.50453 0.75678,-0.75679 1.26161,-0.75679 z"
       id="path26" />
    <path
       style="fill:currentColor"
       inkscape:connector-curvature="0"
       d="m 118.9164,797.36218 c 4.54193,0 8.57922,4.0373 13.37341,4.0373 3.78493,0 7.31751,-1.76634 10.59782,-3.28031 0.25226,-0.25226 0.75678,-0.25226 1.00905,-0.25226 1.76623,0 3.02794,1.76633 3.02794,4.28966 v 92.60439 c 0,12.1118 7.06515,23.71887 18.41996,23.71887 2.0186,0 3.02795,1.26171 3.02795,2.77568 0,1.51398 -1.00905,3.02795 -3.02795,3.02795 -11.10245,0 -21.95263,-3.28031 -33.05508,-3.28031 -11.10244,0 -21.95251,3.28031 -33.054965,3.28031 -2.0186,0 -3.02795,-1.51397 -3.02795,-3.02795 0,-1.51397 1.00905,-2.77568 3.02795,-2.77568 11.354805,0 18.419955,-11.60707 18.419955,-23.71887 v -61.82038 c 0,-3.02795 -2.27097,-4.79429 -4.28955,-4.79429 -1.00905,0 -2.0186,0.75679 -2.52333,1.76634 l -16.148995,34.31668 c -0.75679,1.51398 -1.76624,2.27097 -3.02795,2.27097 -2.0186,0 -4.0372,-1.51398 -4.0372,-3.53268 0,-0.50452 0.25226,-1.26161 0.50453,-1.76623 l 29.522395,-63.0821 c 0.25227,-0.50452 0.75678,-0.75679 1.26161,-0.75679 z"
       id="path28" />
  </g>
</svg>
