<?xml version="1.0" encoding="UTF-8" standalone="no"?>
<!-- Created with Inkscape (http://www.inkscape.org/) -->

<svg
   xmlns:dc="http://purl.org/dc/elements/1.1/"
   xmlns:cc="http://creativecommons.org/ns#"
   xmlns:rdf="http://www.w3.org/1999/02/22-rdf-syntax-ns#"
   xmlns:svg="http://www.w3.org/2000/svg"
   xmlns="http://www.w3.org/2000/svg"
   xmlns:sodipodi="http://sodipodi.sourceforge.net/DTD/sodipodi-0.dtd"
   xmlns:inkscape="http://www.inkscape.org/namespaces/inkscape"
   width="256"
   height="256"
   id="svg3122"
   version="1.1"
   inkscape:version="0.48.4 r9939"
   sodipodi:docname="New document 4">
  <defs
     id="defs3124" />
  <sodipodi:namedview
     id="base"
     pagecolor="#ffffff"
     bordercolor="#666666"
     borderopacity="1.0"
     inkscape:pageopacity="0.0"
     inkscape:pageshadow="2"
     inkscape:zoom="0.35"
     inkscape:cx="375"
     inkscape:cy="520"
     inkscape:document-units="px"
     inkscape:current-layer="layer1"
     showgrid="false"
     inkscape:window-width="728"
     inkscape:window-height="383"
     inkscape:window-x="636"
     inkscape:window-y="24"
     inkscape:window-maximized="0" />
  <metadata
     id="metadata3127">
    <rdf:RDF>
      <cc:Work
         rdf:about="">
        <dc:format>image/svg+xml</dc:format>
        <dc:type
           rdf:resource="http://purl.org/dc/dcmitype/StillImage" />
        <dc:title></dc:title>
      </cc:Work>
    </rdf:RDF>
  </metadata>
  <g
     inkscape:label="Layer 1"
     inkscape:groupmode="layer"
     id="layer1"
     transform="translate(128,128)scale(1.5)translate(-128,-128)translate(0,-796.36218)">
    <path
       style="fill:currentColor"
       inkscape:connector-curvature="0"
       d="m 117.19997,949.56215 c 0,-5.94001 4.86001,-10.79996 10.80003,-10.79996 5.94002,0 10.80003,4.85995 10.80003,10.79996 0,5.94002 -4.86001,10.80003 -10.80003,10.80003 -5.94002,0 -10.80003,-4.86001 -10.80003,-10.80003 z M 84.80003,919.86214 h 86.39994 c 1.08,0 1.80003,0.71981 1.80003,1.80003 v 35.27998 c 0,1.80003 -1.62,3.42003 -3.42003,3.42003 -1.79996,0 -3.41996,-1.62 -3.41996,-3.42003 V 933.36218 H 89.83999 v 23.57997 c 0,1.80003 -1.62,3.42003 -3.41996,3.42003 -1.80003,0 -3.42003,-1.62 -3.42003,-3.42003 v -35.27998 c 0,-1.08 0.71981,-1.80003 1.80003,-1.80003 z M 62.29999,888.36218 h 131.40002 c 1.07993,0 1.79995,0.71981 1.79995,1.80003 v 66.77994 c 0,1.80003 -1.62,3.42003 -3.41996,3.42003 -1.80003,0 -3.42003,-1.62 -3.42003,-3.42003 V 910.86214 H 67.34003 v 46.08001 c 0,1.80003 -1.62,3.42003 -3.42003,3.42003 -1.79996,0 -3.41996,-1.62 -3.41996,-3.42003 v -66.77994 c 0,-1.08 0.71981,-1.80003 1.79995,-1.80003 z"
       id="path62" />
  </g>
</svg>
