<?xml version="1.0" encoding="UTF-8" standalone="no"?>
<!-- Created with Inkscape (http://www.inkscape.org/) -->

<svg
   xmlns:dc="http://purl.org/dc/elements/1.1/"
   xmlns:cc="http://creativecommons.org/ns#"
   xmlns:rdf="http://www.w3.org/1999/02/22-rdf-syntax-ns#"
   xmlns:svg="http://www.w3.org/2000/svg"
   xmlns="http://www.w3.org/2000/svg"
   xmlns:sodipodi="http://sodipodi.sourceforge.net/DTD/sodipodi-0.dtd"
   xmlns:inkscape="http://www.inkscape.org/namespaces/inkscape"
   width="256"
   height="256"
   id="svg3796"
   version="1.1"
   inkscape:version="0.48.4 r9939"
   sodipodi:docname="icon-articulation.button.svg">
  <defs
     id="defs3798" />
  <sodipodi:namedview
     id="base"
     pagecolor="#ffffff"
     bordercolor="#666666"
     borderopacity="1.0"
     inkscape:pageopacity="0.0"
     inkscape:pageshadow="2"
     inkscape:zoom="0.35"
     inkscape:cx="179.55272"
     inkscape:cy="86.508906"
     inkscape:document-units="px"
     inkscape:current-layer="layer1"
     showgrid="false"
     inkscape:window-width="735"
     inkscape:window-height="510"
     inkscape:window-x="543"
     inkscape:window-y="24"
     inkscape:window-maximized="0" />
  <metadata
     id="metadata3801">
    <rdf:RDF>
      <cc:Work
         rdf:about="">
        <dc:format>image/svg+xml</dc:format>
        <dc:type
           rdf:resource="http://purl.org/dc/dcmitype/StillImage" />
        <dc:title />
      </cc:Work>
    </rdf:RDF>
  </metadata>
  <g
     inkscape:label="Layer 1"
     inkscape:groupmode="layer"
     id="layer1"
     transform="translate(128,128)scale(1.5)translate(-128,-128)translate(0,-796.36218)">
    <path
       style="fill:currentColor"
       inkscape:connector-curvature="0"
       d="m 123.78372,839.69551 c 2.10809,0 4.00542,1.89733 6.11348,1.89733 1.68651,0 3.26758,-0.84325 4.74326,-1.47567 0.21082,-0.10541 0.21082,-0.10541 0.42166,-0.10541 0.84325,0 1.68649,0.94866 1.68649,2.21349 v 36.9972 c 0,5.48101 3.37292,10.5405 8.53783,10.5405 1.054,0 1.47567,0.84324 1.47567,1.58107 0,0.73791 -0.42167,1.47568 -1.47567,1.47568 -5.1649,0 -10.22432,-1.47568 -15.38915,-1.47568 -5.16483,0 -10.1189,1.47568 -15.28373,1.47568 -1.05407,0 -1.58108,-0.73792 -1.58108,-1.47568 0,-0.7379 0.52708,-1.58107 1.58108,-1.58107 5.16483,0 8.43241,-5.05949 8.43241,-10.5405 v -22.66213 c 0,-1.58108 -1.15951,-2.42433 -2.10808,-2.42433 -0.52709,0 -0.94867,0.21083 -1.1595,0.73792 l -6.95675,13.38648 c -0.42167,0.7379 -0.94867,0.94865 -1.58108,0.94865 -0.94866,0 -2.00267,-0.7379 -2.00267,-1.79191 0,-0.31625 0,-0.63249 0.21085,-0.94866 l 13.59723,-26.35123 c 0.10541,-0.31624 0.42166,-0.42165 0.7379,-0.42165 z"
       id="path18" />
    <path
       style="fill:currentColor"
       inkscape:connector-curvature="0"
       d="m 93.789837,915.69552 h 68.420323 c 1.15316,0 1.92196,0.76856 1.92196,1.92195 v 59.19516 c 0,1.53752 -1.34538,2.88289 -2.88289,2.88289 -1.53752,0 -3.07503,-1.34537 -3.07503,-2.88289 V 941.25709 H 97.825876 v 35.55554 c 0,1.53752 -1.34537,2.88289 -2.88289,2.88289 -1.53751,0 -3.07511,-1.34537 -3.07511,-2.88289 v -59.19516 c 0,-1.15315 0.76857,-1.92195 1.92196,-1.92195 z"
       id="path32" />
    <path
       d="m 118.03922,999.06806 c 0,-5.578 4.38277,-9.96078 9.96078,-9.96078 5.57801,0 9.96078,4.38278 9.96078,9.96078 0,5.57804 -4.38277,9.96084 -9.96078,9.96084 -5.57801,0 -9.96078,-4.3828 -9.96078,-9.96084 z"
       id="path82"
       inkscape:connector-curvature="0"
       style="fill:currentColor" />
  </g>
</svg>
