<?xml version="1.0" encoding="UTF-8" standalone="no"?>
<!-- Created with Inkscape (http://www.inkscape.org/) -->

<svg
   xmlns:dc="http://purl.org/dc/elements/1.1/"
   xmlns:cc="http://creativecommons.org/ns#"
   xmlns:rdf="http://www.w3.org/1999/02/22-rdf-syntax-ns#"
   xmlns:svg="http://www.w3.org/2000/svg"
   xmlns="http://www.w3.org/2000/svg"
   xmlns:sodipodi="http://sodipodi.sourceforge.net/DTD/sodipodi-0.dtd"
   xmlns:inkscape="http://www.inkscape.org/namespaces/inkscape"
   width="256"
   height="256"
   id="svg3061"
   version="1.1"
   inkscape:version="0.48.4 r9939"
   sodipodi:docname="New document 5">
  <defs
     id="defs3063" />
  <sodipodi:namedview
     id="base"
     pagecolor="#ffffff"
     bordercolor="#666666"
     borderopacity="1.0"
     inkscape:pageopacity="0.0"
     inkscape:pageshadow="2"
     inkscape:zoom="0.35"
     inkscape:cx="375"
     inkscape:cy="520"
     inkscape:document-units="px"
     inkscape:current-layer="layer1"
     showgrid="false"
     inkscape:window-width="735"
     inkscape:window-height="383"
     inkscape:window-x="543"
     inkscape:window-y="24"
     inkscape:window-maximized="0" />
  <metadata
     id="metadata3066">
    <rdf:RDF>
      <cc:Work
         rdf:about="">
        <dc:format>image/svg+xml</dc:format>
        <dc:type
           rdf:resource="http://purl.org/dc/dcmitype/StillImage" />
        <dc:title></dc:title>
      </cc:Work>
    </rdf:RDF>
  </metadata>
  <g
     inkscape:label="Layer 1"
     inkscape:groupmode="layer"
     id="layer1"
     transform="translate(128,128)scale(1.5)translate(-128,-128)translate(0,-796.36218)">
    <path
       style="fill:currentColor"
       inkscape:connector-curvature="0"
       d="m 126.91416,920.08282 c 3.06589,-1.91618 6.13179,-3.70459 8.30338,-6.64273 1.533,-2.04393 2.42721,-4.34329 3.57684,-6.64273 0.25551,-0.63879 0.76654,-0.8943 1.40524,-0.8943 1.02196,0 2.04393,0.76654 2.04393,2.17168 v 27.72055 h 10.0918 c 1.5329,0 2.29935,1.14973 2.29935,2.29936 0,1.14972 -0.76654,2.29944 -2.29935,2.29944 h -10.0918 c 0.25551,6.51497 4.21552,12.26349 10.21956,12.26349 1.27739,0 1.91617,1.02197 1.91617,1.91618 0,0.8943 -0.63878,1.78842 -1.91617,1.78842 -6.25955,0 -12.26349,-1.78842 -18.52295,-1.78842 -6.25955,0 -12.39125,1.78842 -18.65071,1.78842 -1.27748,0 -1.78842,-0.89431 -1.78842,-1.78842 0,-0.8943 0.51103,-1.91618 1.78842,-1.91618 6.00394,0 10.0918,-5.74852 10.34732,-12.26349 h -19.41716 c -3.70459,0 -4.85431,-2.17169 -4.85431,-3.57683 0,-0.38327 0.12775,-0.76655 0.25551,-1.02197 9.96414,-11.24153 15.71266,-25.67661 15.71266,-40.75049 0,-1.40524 1.02188,-2.68262 2.1716,-2.68262 0.12776,0 0.38327,0.12775 0.51103,0.12775 3.19356,0.8943 6.38721,1.78842 9.70853,1.78842 3.32141,0 6.64273,-0.8943 9.83638,-1.78842 0.25552,-0.12775 0.51103,-0.12775 0.76655,-0.12775 1.27739,0 2.17159,0.8943 2.17159,1.78841 0,0.25552 0,0.63879 -0.25551,0.8943 l -36.02394,40.7505 h 19.41716 v -12.2635 c 0,-1.27738 0.12776,-2.68262 1.27739,-3.44907 z"
       id="path12" />
  </g>
</svg>
