<?xml version="1.0" encoding="UTF-8" standalone="no"?>
<!-- Created with Inkscape (http://www.inkscape.org/) -->

<svg
   xmlns:dc="http://purl.org/dc/elements/1.1/"
   xmlns:cc="http://creativecommons.org/ns#"
   xmlns:rdf="http://www.w3.org/1999/02/22-rdf-syntax-ns#"
   xmlns:svg="http://www.w3.org/2000/svg"
   xmlns="http://www.w3.org/2000/svg"
   xmlns:sodipodi="http://sodipodi.sourceforge.net/DTD/sodipodi-0.dtd"
   xmlns:inkscape="http://www.inkscape.org/namespaces/inkscape"
   width="256"
   height="256"
   id="svg3106"
   version="1.1"
   inkscape:version="0.48.4 r9939"
   sodipodi:docname="New document 8">
  <defs
     id="defs3108" />
  <sodipodi:namedview
     id="base"
     pagecolor="#ffffff"
     bordercolor="#666666"
     borderopacity="1.0"
     inkscape:pageopacity="0.0"
     inkscape:pageshadow="2"
     inkscape:zoom="1.1992188"
     inkscape:cx="128"
     inkscape:cy="526.17999"
     inkscape:document-units="px"
     inkscape:current-layer="layer1"
     showgrid="false"
     inkscape:window-width="735"
     inkscape:window-height="383"
     inkscape:window-x="543"
     inkscape:window-y="24"
     inkscape:window-maximized="0" />
  <metadata
     id="metadata3111">
    <rdf:RDF>
      <cc:Work
         rdf:about="">
        <dc:format>image/svg+xml</dc:format>
        <dc:type
           rdf:resource="http://purl.org/dc/dcmitype/StillImage" />
        <dc:title></dc:title>
      </cc:Work>
    </rdf:RDF>
  </metadata>
  <g
     inkscape:label="Layer 1"
     inkscape:groupmode="layer"
     id="layer1"
     transform="translate(128,128)scale(1.5)translate(-128,-128)translate(0,-796.36217)">
    <path
       style="fill:currentColor"
       inkscape:connector-curvature="0"
       d="m 373.24658,528.93753 c 0.61643,0.10959 1.24657,0.19178 1.87671,0.19178 0.63013,0 1.26027,-0.0822 1.87671,-0.19178 h 0.0548 c 0.15069,0 0.26028,0.0959 0.26028,0.19178 0,0.0274 -0.0137,0.0548 -0.0411,0.0822 -0.93151,0.93151 -2.21918,1.38356 -3.53424,1.38356 -0.15069,0 -0.27398,0.13699 -0.27398,0.28767 v 1 c 0.36987,-0.36986 0.91781,-0.49315 1.45206,-0.49315 1.60274,0 2.57534,0.68493 2.57534,2.20548 0,1.32876 -1.31507,2.19178 -2.73973,2.19178 -1.15068,0 -2.24657,-0.58904 -2.24657,-1.63014 0,-0.43835 0.35617,-0.79452 0.79452,-0.79452 0.43836,0 0.79452,0.35617 0.79452,0.79452 0,0.30137 -0.49315,0.35617 -0.49315,0.65754 0,0.47945 0.60274,0.57534 1.15068,0.57534 0.75343,0 0.97261,-0.91781 0.97261,-1.79452 0,-0.80822 -0.10959,-1.71233 -0.80822,-1.71233 -0.57534,0 -1.16438,0.0685 -1.49315,0.52055 -0.0548,0.0685 -0.13699,0.10959 -0.20548,0.10959 -0.12329,0 -0.24658,-0.0959 -0.24658,-0.24658 v -3.05479 c 0,-0.15068 0.10959,-0.27397 0.24658,-0.27397 h 0.0274 z"
       id="path8" />
    <path
       style="fill:currentColor"
       inkscape:connector-curvature="0"
       d="m 111.61596,892.36217 c 5.75992,1.02401 11.64794,1.79199 17.53597,1.79199 5.88793,0 11.77595,-0.76808 17.53596,-1.79199 h 0.51205 c 1.40805,0 2.43206,0.89609 2.43206,1.79199 0,0.25603 -0.12801,0.51205 -0.38404,0.76808 -8.70402,8.70402 -20.736,12.92797 -33.02391,12.92797 -1.40805,0 -2.56007,1.28004 -2.56007,2.68799 v 9.34399 c 3.45606,-3.45597 8.57601,-4.60799 13.56804,-4.60799 14.97599,0 24.06396,6.39998 24.06396,20.60799 0,12.41602 -12.28801,20.47998 -25.60002,20.47998 -10.75195,-9e-5 -20.99194,-5.50408 -20.99194,-15.23211 0,-4.09594 3.32805,-7.42399 7.42399,-7.42399 4.09604,0 7.42399,3.32805 7.42399,7.42399 0,2.816 -4.60799,3.32805 -4.60799,6.14405 0,4.47998 5.632,5.37597 10.75195,5.37597 7.04004,0 9.08806,-8.57601 9.08806,-16.76798 0,-7.552 -1.02401,-16 -7.552,-16 -5.37598,0 -10.87996,0.64006 -13.95199,4.86401 -0.51205,0.64007 -1.28003,1.02401 -1.92,1.02401 -1.15202,0 -2.30404,-0.89609 -2.30404,-2.30404 v -28.54394 c 0,-1.40795 1.02401,-2.55997 2.30404,-2.55997 h 0.25603 z"
       id="path8-3" />
  </g>
</svg>
