<?xml version="1.0" encoding="UTF-8" standalone="no"?>
<!-- Created with Inkscape (http://www.inkscape.org/) -->

<svg
   xmlns:dc="http://purl.org/dc/elements/1.1/"
   xmlns:cc="http://creativecommons.org/ns#"
   xmlns:rdf="http://www.w3.org/1999/02/22-rdf-syntax-ns#"
   xmlns:svg="http://www.w3.org/2000/svg"
   xmlns="http://www.w3.org/2000/svg"
   xmlns:sodipodi="http://sodipodi.sourceforge.net/DTD/sodipodi-0.dtd"
   xmlns:inkscape="http://www.inkscape.org/namespaces/inkscape"
   width="256"
   height="256"
   id="svg3202"
   version="1.1"
   inkscape:version="0.48.4 r9939"
   sodipodi:docname="Nieuw document 14">
  <defs
     id="defs3204" />
  <sodipodi:namedview
     id="base"
     pagecolor="#ffffff"
     bordercolor="#666666"
     borderopacity="1.0"
     inkscape:pageopacity="0.0"
     inkscape:pageshadow="2"
     inkscape:zoom="0.35"
     inkscape:cx="-33.571429"
     inkscape:cy="520"
     inkscape:document-units="px"
     inkscape:current-layer="layer1"
     showgrid="false"
     inkscape:window-width="1024"
     inkscape:window-height="744"
     inkscape:window-x="0"
     inkscape:window-y="24"
     inkscape:window-maximized="1" />
  <metadata
     id="metadata3207">
    <rdf:RDF>
      <cc:Work
         rdf:about="">
        <dc:format>image/svg+xml</dc:format>
        <dc:type
           rdf:resource="http://purl.org/dc/dcmitype/StillImage" />
        <dc:title></dc:title>
      </cc:Work>
    </rdf:RDF>
  </metadata>
  <g
     inkscape:label="Laag 1"
     inkscape:groupmode="layer"
     id="layer1"
     transform="translate(0,-796.36218)">
    <path
       d="m 137.10026,968.85259 -0.40435,26.69433 c 0,1.61741 -0.40435,2.83111 -0.40435,4.44901 0,8.89797 0.40435,17.79617 1.6174,26.69417 17.79617,-14.9649 35.18782,-33.16558 35.18782,-56.21961 0,-13.34717 -4.449,-27.09868 -16.17827,-27.09868 -12.13379,0 -19.41406,12.13362 -19.81857,25.48078 z m -17.39181,72.39801 -0.80871,-42.87257 c -10.9204,13.75167 -26.69433,25.07647 -39.63698,37.61477 -5.25786,5.2578 -7.68462,15.3694 -15.77376,15.3694 -5.25803,0 -9.30268,-4.4492 -9.30268,-10.1116 L 49.33281,800.59797 c 3.23578,-2.02241 7.28027,-3.23579 10.92041,-3.23579 3.64013,0 7.68478,1.21305 10.92041,3.23579 l -2.83128,139.53805 c 6.87593,-8.49365 17.39182,-13.75152 28.31223,-13.75152 8.08913,0 15.36941,3.23563 21.03179,8.49366 l -2.83128,-134.28019 c 3.23579,-2.02241 7.28028,-3.23579 10.92041,-3.23579 3.64014,0 7.68479,1.21305 10.92041,3.23579 l -2.42676,139.53805 c 9.70703,-8.49365 22.24517,-13.75152 35.18782,-13.75152 21.4363,0 37.21022,19.00955 37.21022,40.8502 0,32.35671 -34.78346,47.7261 -59.45539,68.7581 -6.06689,5.2578 -9.30251,15.3694 -17.79616,15.3694 -5.25803,0 -9.70703,-4.4492 -9.70703,-10.1116 z M 67.12881,995.95128 v 4.04465 c 0,9.30247 0.40435,18.20067 1.61741,27.50317 15.77392,-15.3694 28.71657,-34.78345 28.71657,-57.02861 0,-12.94265 -2.42675,-27.09868 -13.34716,-27.09868 -11.32476,0 -15.77392,12.94265 -16.17828,25.48078 z"
       id="path6512"
       inkscape:connector-curvature="0"
       style="fill:currentColor" />
  </g>
</svg>
