<?xml version="1.0" encoding="UTF-8" standalone="no"?>
<!-- Created with Inkscape (http://www.inkscape.org/) -->

<svg
   xmlns:dc="http://purl.org/dc/elements/1.1/"
   xmlns:cc="http://creativecommons.org/ns#"
   xmlns:rdf="http://www.w3.org/1999/02/22-rdf-syntax-ns#"
   xmlns:svg="http://www.w3.org/2000/svg"
   xmlns="http://www.w3.org/2000/svg"
   xmlns:sodipodi="http://sodipodi.sourceforge.net/DTD/sodipodi-0.dtd"
   xmlns:inkscape="http://www.inkscape.org/namespaces/inkscape"
   width="256"
   height="256"
   id="svg3253"
   version="1.1"
   inkscape:version="0.48.4 r9939"
   sodipodi:docname="New document 2">
  <defs
     id="defs3255" />
  <sodipodi:namedview
     id="base"
     pagecolor="#ffffff"
     bordercolor="#666666"
     borderopacity="1.0"
     inkscape:pageopacity="0.0"
     inkscape:pageshadow="2"
     inkscape:zoom="0.35"
     inkscape:cx="375"
     inkscape:cy="520"
     inkscape:document-units="px"
     inkscape:current-layer="layer1"
     showgrid="false"
     inkscape:window-width="689"
     inkscape:window-height="399"
     inkscape:window-x="323"
     inkscape:window-y="24"
     inkscape:window-maximized="0" />
  <metadata
     id="metadata3258">
    <rdf:RDF>
      <cc:Work
         rdf:about="">
        <dc:format>image/svg+xml</dc:format>
        <dc:type
           rdf:resource="http://purl.org/dc/dcmitype/StillImage" />
        <dc:title></dc:title>
      </cc:Work>
    </rdf:RDF>
  </metadata>
  <g
     inkscape:label="Layer 1"
     inkscape:groupmode="layer"
     id="layer1"
     transform="translate(0,-796.36218)">
    <g
       transform="matrix(63.270626,0,0,63.270626,45.264166,1051.3622)"
       id="g238">
      <path
         style="fill:currentColor"
         inkscape:connector-curvature="0"
         transform="scale(0.004,-0.004)"
         d="m 122,503 c 18,0 34,-16 53,-16 15,0 29,7 42,13 1,1 3,1 4,1 7,0 12,-7 12,-17 V 117 c 0,-48 28,-94 73,-94 8,0 12,-5 12,-11 C 318,6 314,0 306,0 262,0 219,13 175,13 131,13 88,0 44,0 36,0 32,6 32,12 c 0,6 4,11 12,11 45,0 73,46 73,94 v 245 c 0,12 -9,19 -17,19 -4,0 -8,-3 -10,-7 L 26,238 c -3,-6 -7,-9 -12,-9 -8,0 -16,6 -16,14 0,2 1,5 2,7 l 117,250 c 1,2 3,3 5,3 z"
         id="path240" />
      <path
         style="fill:currentColor"
         inkscape:connector-curvature="0"
         transform="matrix(0.004,0,0,-0.004,1.2633,0)"
         d="m 170,256 c -51,0 -53,-44 -53,-102 v -14 -15 c 0,-58 2,-102 53,-102 57,0 61,51 61,117 0,66 -4,116 -61,116 z m -53,10 c 17,7 34,13 53,13 101,0 170,-44 170,-139 C 340,45 271,0 170,0 58,0 0,124 0,250 c 0,128 72,250 190,250 71,0 138,-39 138,-103 0,-36 -29,-66 -65,-66 -36,0 -66,30 -66,66 0,24 39,25 39,49 0,20 -23,31 -46,31 -66,0 -75,-65 -75,-139 0,-24 2,-48 2,-72 z"
         id="path242" />
    </g>
    <path
       style="fill:currentColor"
       inkscape:connector-curvature="0"
       d="m 97.949626,797.36218 c 11.641874,2.02463 23.030524,3.29012 34.672394,3.29012 11.64176,0 23.28353,-1.26549 34.92539,-3.29012 h 1.01206 c 3.0369,0 4.80852,2.53087 3.29002,4.04937 -17.20963,17.20953 -42.01176,23.53664 -66.56078,23.53664 -2.27775,0 -4.30238,2.02464 -4.30238,4.30239 v 24.29589 c 7.08637,-7.08626 16.7035,-10.88251 26.57365,-10.88251 29.35763,0 47.07339,12.90725 47.07339,40.74628 0,23.78976 -22.01814,40.49326 -47.07339,40.49326 -20.75277,0 -41.252414,-9.87025 -41.252414,-28.59838 0,-9.111 7.59249,-16.7034 16.703394,-16.7034 9.111,0 16.45038,7.5924 16.45038,16.7034 0,6.32712 -10.12326,7.08637 -10.12326,13.41338 0,7.5925 9.36401,9.36402 18.2219,9.36402 14.42575,0 17.71586,-17.96878 17.71586,-34.67228 0,-15.94415 -3.79625,-33.4069 -17.71586,-33.4069 -10.6294,0 -21.00578,3.037 -27.07978,11.38875 -0.759054,1.01206 -2.024644,1.5185 -3.037004,1.5185 -2.02464,0 -3.79625,-1.5185 -3.79625,-3.79625 v -57.70279 c 0,-2.27775 1.77161,-4.04937 3.79625,-4.04937 h 0.50603 z"
       id="path244" />
  </g>
</svg>
