<?xml version="1.0" encoding="UTF-8" standalone="no"?>
<!-- Created with Inkscape (http://www.inkscape.org/) -->

<svg
   xmlns:dc="http://purl.org/dc/elements/1.1/"
   xmlns:cc="http://creativecommons.org/ns#"
   xmlns:rdf="http://www.w3.org/1999/02/22-rdf-syntax-ns#"
   xmlns:svg="http://www.w3.org/2000/svg"
   xmlns="http://www.w3.org/2000/svg"
   xmlns:sodipodi="http://sodipodi.sourceforge.net/DTD/sodipodi-0.dtd"
   xmlns:inkscape="http://www.inkscape.org/namespaces/inkscape"
   width="256"
   height="256"
   id="svg3142"
   version="1.1"
   inkscape:version="0.48.4 r9939"
   sodipodi:docname="New document 2">
  <defs
     id="defs3144" />
  <sodipodi:namedview
     id="base"
     pagecolor="#ffffff"
     bordercolor="#666666"
     borderopacity="1.0"
     inkscape:pageopacity="0.0"
     inkscape:pageshadow="2"
     inkscape:zoom="0.35"
     inkscape:cx="266.43756"
     inkscape:cy="171.19388"
     inkscape:document-units="px"
     inkscape:current-layer="layer1"
     showgrid="false"
     inkscape:window-width="728"
     inkscape:window-height="717"
     inkscape:window-x="637"
     inkscape:window-y="24"
     inkscape:window-maximized="0" />
  <metadata
     id="metadata3147">
    <rdf:RDF>
      <cc:Work
         rdf:about="">
        <dc:format>image/svg+xml</dc:format>
        <dc:type
           rdf:resource="http://purl.org/dc/dcmitype/StillImage" />
        <dc:title></dc:title>
      </cc:Work>
    </rdf:RDF>
  </metadata>
  <g
     inkscape:label="Layer 1"
     inkscape:groupmode="layer"
     id="layer1"
     transform="translate(0,-796.36215)">
    <path
       style="fill:currentColor"
       inkscape:connector-curvature="0"
       d="m 190.72287,836.23914 c -29.02845,0 -52.87355,55.46555 -52.87355,89.67777 0,11.40422 4.14709,19.69801 15.5511,19.69801 33.17556,0 50.28177,-65.31444 50.28177,-92.26956 0,-9.33066 -3.62866,-17.10622 -12.95932,-17.10622 z m -62.72245,201.64556 c -19.69801,0 -40.432878,-2.592 -60.130875,-2.592 -20.216235,0 -40.432675,2.592 -59.6124444,2.592 -4.665124,0 -7.25711278,-3.6287 -7.25711278,-7.2573 0,-9.3304 16.06954418,-7.7755 24.88176918,-8.2938 11.404009,-0.5182 24.363336,-2.5918 27.99179,-12.9593 L 106.74731,853.8638 c 1.03646,-3.62866 2.07292,-7.25732 2.07292,-10.36733 0,-4.1471 -1.03646,-7.25733 -5.702,-7.25733 -17.106221,0 -32.657117,31.10221 -40.951106,50.28178 -2.591783,6.22044 -7.775555,8.81222 -12.440893,8.81222 -4.146887,0 -7.257113,-2.07293 -7.257113,-6.22023 0,-1.03647 0.518237,-2.59199 1.036465,-4.14711 15.55111,-35.2491 37.322654,-74.12666 68.424657,-74.12666 18.1429,0 30.58378,10.88578 34.21244,26.95511 15.03267,-16.06933 34.73066,-26.95511 53.39199,-26.95511 35.76735,0 55.46534,25.4 55.46534,59.094 0,10.88578 -2.07293,22.80822 -6.22044,34.73066 -10.36734,30.06534 -47.17155,61.68599 -76.20021,61.68599 -13.9958,0 -26.95512,-2.59199 -37.8409,-8.81243 -2.07292,-1.03646 -3.62845,-1.55469 -5.702,-1.55469 -3.62865,0 -7.25711,1.55469 -8.29399,4.66533 l -15.03267,44.5798 c -0.51823,1.0365 -0.51823,2.5918 -0.51823,3.6287 0,10.3673 10.88577,13.4775 22.80822,14.5142 4.66533,0.5183 6.73867,4.1469 6.73867,7.2571 0,3.6287 -2.07292,7.2574 -6.73867,7.2574 z"
       id="path50-1" />
  </g>
</svg>
