<?xml version="1.0" encoding="UTF-8" standalone="no"?>
<!-- Created with Inkscape (http://www.inkscape.org/) -->

<svg
   xmlns:dc="http://purl.org/dc/elements/1.1/"
   xmlns:cc="http://creativecommons.org/ns#"
   xmlns:rdf="http://www.w3.org/1999/02/22-rdf-syntax-ns#"
   xmlns:svg="http://www.w3.org/2000/svg"
   xmlns="http://www.w3.org/2000/svg"
   xmlns:sodipodi="http://sodipodi.sourceforge.net/DTD/sodipodi-0.dtd"
   xmlns:inkscape="http://www.inkscape.org/namespaces/inkscape"
   width="256"
   height="256"
   id="svg3541"
   version="1.1"
   inkscape:version="0.48.4 r9939"
   sodipodi:docname="New document 19">
  <defs
     id="defs3543" />
  <sodipodi:namedview
     id="base"
     pagecolor="#ffffff"
     bordercolor="#666666"
     borderopacity="1.0"
     inkscape:pageopacity="0.0"
     inkscape:pageshadow="2"
     inkscape:zoom="0.35"
     inkscape:cx="375"
     inkscape:cy="520"
     inkscape:document-units="px"
     inkscape:current-layer="layer1"
     showgrid="false"
     inkscape:window-width="689"
     inkscape:window-height="399"
     inkscape:window-x="323"
     inkscape:window-y="24"
     inkscape:window-maximized="0" />
  <metadata
     id="metadata3546">
    <rdf:RDF>
      <cc:Work
         rdf:about="">
        <dc:format>image/svg+xml</dc:format>
        <dc:type
           rdf:resource="http://purl.org/dc/dcmitype/StillImage" />
        <dc:title></dc:title>
      </cc:Work>
    </rdf:RDF>
  </metadata>
  <g
     inkscape:label="Layer 1"
     inkscape:groupmode="layer"
     id="layer1"
     transform="translate(0,-796.36218)">
    <path
       style="fill:currentColor"
       inkscape:connector-curvature="0"
       d="m 86.708641,1049.5321 c -0.257199,1.8009 -1.543606,2.8299 -2.82991,2.8299 -1.543606,0 -3.087212,-1.0288 -3.087212,-2.8299 0,-45.0217 60.457731,-42.4491 60.457731,-88.49988 0,-15.43595 -4.63082,-31.38652 -18.00867,-31.38652 -6.68892,0 -13.12065,3.60172 -13.12065,9.51884 0,6.94623 9.00434,10.54794 9.00434,17.49417 0,9.77613 -7.71804,17.75147 -17.49417,17.75147 -9.77614,0 -17.751368,-7.97534 -17.751368,-17.75147 0,-19.55228 18.523168,-32.93013 39.361848,-32.93013 24.6976,0 48.10889,14.40696 48.10889,37.30364 0,39.36188 -38.84725,40.90548 -64.05945,56.59868 2.31541,-0.5144 4.37352,-0.7716 6.68893,-0.7716 8.48983,0 18.00866,2.8301 27.013,9.2617 5.40262,3.859 11.83435,5.9171 16.97967,5.9171 5.40262,0 10.03333,-2.3154 11.31974,-7.4607 0.5144,-1.5436 1.5436,-2.3154 2.82991,-2.3154 1.5436,0 3.08721,1.2863 3.08721,3.0872 0,17.2368 -23.15399,27.013 -35.50284,27.013 -9.26163,0 -18.26597,-3.6017 -24.69759,-11.3198 -3.34451,-4.1162 -7.97533,-5.6598 -12.34885,-5.6598 -7.718027,0 -15.178755,5.1453 -15.950558,14.1497 z"
       id="path54" />
    <path
       style="fill:currentColor"
       inkscape:connector-curvature="0"
       d="m 123.76789,802.2793 c -7.46073,0 -15.17876,2.05811 -15.17876,8.48984 0,5.65982 9.26164,6.43162 9.26164,12.09154 0,8.23253 -6.68893,14.92146 -14.92146,14.92146 -8.232631,0 -14.664254,-6.68893 -14.664254,-14.92146 0,-16.72236 17.236864,-26.4985 35.502834,-26.4985 23.41129,0 43.47807,8.48983 43.47807,29.32841 0,11.06244 -1.0288,21.09588 -10.80514,25.7267 -2.31541,1.0288 -3.60182,3.08721 -3.60182,5.40262 0,2.31541 1.28641,4.63082 3.60182,5.65982 10.54794,4.88812 14.40695,14.66426 14.40695,26.4985 0,23.6686 -20.32418,36.01734 -46.05077,36.01734 -20.32408,0 -39.619157,-10.80514 -39.619157,-29.07111 0,-9.26164 7.718031,-16.97967 16.979667,-16.97967 9.26153,0 16.72226,7.71803 16.72226,16.97967 0,6.43162 -10.29064,7.20343 -10.29064,13.63515 0,6.94623 8.23253,9.51884 16.20787,9.51884 12.60604,0 16.20776,-15.69326 16.20776,-30.10022 v -4.11621 c 0,-13.89245 -0.5144,-24.18309 -12.86335,-24.18309 h -20.58138 c -2.57261,0 -3.60171,-2.05821 -3.60171,-3.85902 0,-1.80091 1.02879,-3.60171 3.60171,-3.60171 h 20.58138 c 12.60605,0 12.86335,-11.06255 12.86335,-25.4695 v -2.05811 c 0,-13.89245 -4.63082,-23.41129 -17.23687,-23.41129 z"
       id="path56" />
  </g>
</svg>
